A,62.72
AA,47.41
AAAP,38.01
AAC,9.73
AAL,43.44
AAME,4.38
AAN,44.26
AAOI,17.56
AAON,27.16
AAP,139.67
AAPC,10.37
AAPL,105.92
AAT,37.91
AAV,3.15
AAVL,5.21
AAWW,42.2
AAXJ,54.32
AB,29.3
ABAC,0.65
ABAX,42
ABB,21.83
ABBV,96.25
ABC,86.9
ABCB,29.43
ABCD,4.39
ABCO,30.25
ABCW,44.29
ABDC,10.83
ABEO,2.9
ABEOW,0.9
ABEV,4.92
ABG,67.8
ABGB,1.33
ABIL,6.38
ABIO,3.78
ABM,30.15
ABMD,87.53
ABR,10.9
ABT,61.78
ABTL,18.46
ABTX,18.43
ABUS,3.96
ABX,12.82
ABY,17.59
AC,41.25
ACAD,19.79
ACAS,14.94
ACAT,17.32
ACBI,13.69
ACC,42.82
ACCO,14.1
ACET,21.78
ACFC,5.87
ACGL,70.17
ACH,9.83
ACHC,52.37
ACHN,7.26
ACIW,20.02
ACLS,2.85
ACM,32.09
ACN,167.64
ACNB,22.35
ACOR,26.43
ACPW,0.95
ACRE,14.1
ACRS,15.71
ACRX,3.08
ACSF,9.6
ACTA,9.4
ACTG,3.83
ACTS,1.42
ACTX,12.89
ACUR,2.15
ACWI,56
ACWX,39.59
ACXM,21.78
ADAP,7.61
ADBE,93.42
ADC,53.79
ADHD,4.03
ADI,59.01
ADM,47.17
ADMA,5.79
ADMP,5.47
ADMS,12.64
ADNT,48.66
ADP,88.64
ADRA,26
ADRD,19.89
ADRE,30.71
ADRO,11.97
ADRU,19.57
ADS,218.97
ADSK,57.81
ADSW,24.98
ADT,9.18
ADTN,19.6
ADUS,17.11
ADXS,8.24
ADXSW,5.76
AEE,61.34
AEG,6.12
AEGN,20.87
AEGR,3.92
AEHR,1.08
AEIS,32.8
AEL,34.98
AEM,45.69
AEMD,4.99
AEO,23.25
AEP,70.42
AEPI,65.13
AER,54.96
AERI,12.37
AES,13.13
AET,191.45
AETI,2.43
AEY,2.07
AEZS,3.58
AFAM,35.68
AFFX,15.99
AFG,108.52
AFH,18.11
AFI,14.01
AFL,42.78
AFMD,3.96
AFOP,14.17
AFSI,25.81
AG,7.43
AGCO,58.59
AGEN,3.79
AGFS,6
AGFSW,0.92
AGI,5.58
AGII,57.1
AGIIL,25.12
AGIO,36.1
AGM,94.5
AGN,175.66
AGNC,18.63
AGNCB,24.69
AGNCP,25.92
AGO,36.45
AGR,52.99
AGRO,8.42
AGRX,5.79
AGS,28.48
AGTC,13.75
AGX,39
AGYS,10.59
AGZD,47.53
AHC,4.55
AHGP,14.47
AHH,15.29
AHL,40.2
AHPI,0.67
AHT,8.2
AI,10.16
AIA,43.19
AIG%,16
AIG,54.77
AIMC,27.15
AIMT,14.65
AIN,62.35
AINV,5.53
AIQ,6.96
AIR,45.3
AIRM,37.06
AIRR,17.38
AIRT,26.62
AIT,72.5
AIV,42.48
AIXG,3.86
AIZ,107.98
AJG,69.46
AJRD,30.41
AJX,13.36
AKAM,55.95
AKAO,3.24
AKBA,8.66
AKER,2
AKOB,21.94
AKR,26.76
AKRX,18.85
AKS,4.54
AKTX,12.25
AL,42.29
ALB,94.96
ALCO,27.48
ALDR,18.69
ALDX,4.48
ALE,77.44
ALEX,24.6
ALG,89.23
ALGN,68.9
ALGT,173.1
ALIM,1.82
ALK,61.41
ALKS,30.2
ALL,93.46
ALLE,79.24
ALLT,4.88
ALLY,27.25
ALNY,59.8
ALOG,76.23
ALOT,14.66
ALQA,0.89
ALRM,21.75
ALSK,1.64
ALSN,41.23
ALTY,14.13
ALV,105.34
ALX,383.53
ALXA,0.5
ALXN,128.45
AM,29.84
AMAG,21.51
AMAT,20.49
AMBA,39.92
AMBC,17.1
AMBCW,7.9
AMBR,8.82
AMC,16.7
AMCC,6.48
AMCN,5.62
AMCX,65.62
AMD,2.93
AMDA,1.96
AME,72.97
AMED,43.83
AMG,148.62
AMGN,145.51
AMGP,18.35
AMH,22.65
AMIC,18.98
AMID,10.3
AMKR,5.61
AMN,59.75
AMNB,25.16
AMOT,18.39
AMOV,14.88
AMOV,17.58
AMP,142.24
AMPH,11.64
AMRB,10.19
AMRC,13.05
AMRI,14.34
AMRK,20.87
AMRN,1.44
AMRS,1.2
AMRX,18.53
AMSC,7.64
AMSF,51.91
AMSG,70.45
AMSGP,135.3
AMSWA,8.82
AMT,141.76
AMTD,31.69
AMTX,2.12
AMWD,72.49
AMX,17.74
AMZN,552.08
AN,49.17
ANAC,57.93
ANAT,112.93
ANCB,23.58
ANCX,19.22
ANDAR,0.21
ANDAW,0.11
ANDE,30.61
ANDV,135.07
ANDX,42.51
ANET,270.84
ANF,25.57
ANFI,1.98
ANGI,8.29
ANGO,11.38
ANH,5.01
ANIK,43.75
ANIP,32.04
ANSS,87.67
ANTH,3.8
ANTM,248.28
ANW,1.63
ANY,1.39
AOI,14.85
AON,145.21
AOS,59.47
AOSL,10.75
AP,9.6
APA,46
APAM,31.1
APC,72.84
APD,155.55
APDN,3.38
APDNW,1.55
APEI,21.09
APH,88.53
APIC,8.05
APLE,18.06
APLP,11.17
APO,35.92
APOG,44.18
APOL,8.38
APPF,12.12
APPS,1.16
APPY,0.29
APRI,1.06
APRN,3.74
APTO,2.65
APTS,17.57
APTV,93.55
APU,42.65
APY,37.96
AQ,12.25
AQMS,6.09
AQN,9.6
AQUA,20.79
AQXP,8.32
AR,21.42
ARA,15.32
ARAY,5.38
ARC,2.04
ARCB,23.43
ARCC,14.28
ARCH,75.85
ARCI,1.03
ARCO,7.45
ARCW,2.58
ARD,16.54
ARDM,4.04
ARDX,7.17
ARE,126.96
ARES,21.6
AREX,1.56
ARGO,60.35
ARGS,4.93
ARI,18.66
ARIA,6.27
ARII,43.3
ARIS,4.45
ARKR,20.74
ARL,16.94
ARLP,12.88
ARLZ,3.72
ARMH,43.67
ARMK,38.61
ARNA,1.65
ARNC,19.2
AROC,12.75
AROW,26.71
ARQL,1.49
ARR,23.09
ARRS,22.81
ARRY,2.69
ARTNA,26.96
ARTW,3.09
ARTX,2.6
ARW,77.05
ARWAU,10.13
ARWR,4.53
ASB,28.15
ASBB,24.53
ASC,7.65
ASCMA,15.94
ASEI,27.57
ASET,25.7
ASFI,9
ASGN,82.18
ASH,79.86
ASIX,37.99
ASMB,5.6
ASML,97.98
ASNA,10.85
ASND,17.66
ASPN,5.22
ASPS,23.88
ASR,169.23
ASRV,2.96
ASTC,1.88
ASTE,46.61
ASUR,5.6
ASX,4.55
ASYS,6.97
AT,2.25
ATAI,5.32
ATAX,5.24
ATEC,0.23
ATEN,7.28
ATGE,52.1
ATH,44.28
ATHM,99.03
ATHN,134.18
ATHX,2.43
ATI,26.27
ATKR,22.18
ATLC,3.15
ATLO,24.99
ATML,8.12
ATNI,72.68
ATNY,1.95
ATO,91.11
ATOS,0.35
ATR,93.29
ATRA,16.86
ATRC,17.15
ATRI,389.54
ATRO,38.31
ATRS,0.73
ATSG,14.56
ATTO,6.45
ATTU,7.66
ATU,27.9
ATUS,18.33
ATV,21.45
ATVI,32.2
AU,8.56
AUDC,4.48
AUMA,9.83
AUO,3.94
AUPH,3.04
AUY,2.92
AVA,50.4
AVAL,8.23
AVAV,28.18
AVB,172.65
AVD,21.75
AVEO,0.93
AVGO,152.49
AVGR,9.07
AVH,6.49
AVHI,12
AVID,7.07
AVLR,43.62
AVNS,57.71
AVNU,19.44
AVNW,0.66
AVP,1.43
AVX,17.82
AVXL,4.92
AVXS,24.47
AVY,103
AVYA,20.91
AWI,67.05
AWK,87.57
AWR,59.85
AWRE,3.88
AXAS,1.15
AXDX,13.17
AXE,64.25
AXGN,5.3
AXL,16.64
AXP,100.69
AXR,7.19
AXS,57.37
AXSM,8.54
AXTA,29.66
AXTI,2.57
AYA,14.31
AYI,132.33
AYR,20.26
AYX,42.33
AZN,36.66
AZO,692.78
AZPN,36.13
AZRE,14.55
AZUL,17.63
AZZ,53.85
B,60.06
BA,356.1
BABA,190.35
BABY,39.01
BAC%A,18
BAC%B,0.92
BAC,29.78
BAH,46.27
BAK,27.22
BAM,41.81
BANC,19.25
BANF,58.69
BANFP,27.27
BANR,43.29
BANX,17.5
BAP,229.09
BAS,11.3
BASI,1.19
BAX,74.01
BB,10.1
BBBY,50.5
BBC,18.03
BBCN,15.42
BBDO,6.76
BBEP,0.81
BBEPP,7.24
BBGI,3.52
BBH,100.17
BBL,43.08
BBLU,0.09
BBOX,14.45
BBP,23.52
BBRG,9.04
BBRY,8.05
BBSI,28.06
BBT,51.64
BBU,39.65
BBVA,7.05
BBW,8.2
BBX,8.88
BBY,75.48
BC,67.79
BCBP,9.97
BCC,46.45
BCE,42.61
BCEI,35.25
BCH,91.01
BCLI,2.75
BCO,82.25
BCOM,30.85
BCOR,5.39
BCOV,5.86
BCPC,61.78
BCRH,11.35
BCRX,2.63
BCS,10.34
BDC,64.21
BDE,4.76
BDGE,29.25
BDMS,9.4
BDN,16.75
BDSI,2.79
BDX,245.13
BEAT,12.45
BEAV,47.27
BEBE,0.53
BECN,39.76
BEDU,16.21
BEL,11.3
BELFA,13.1
BELFB,14.69
BEN,32.1
BEP,30.62
BERY,46.94
BFA,51.7
BFAM,108.57
BFB,51.17
BFIN,12.07
BFR,12.79
BFS,53.5
BG,67.66
BGCP,9.34
BGFV,11.81
BGG,17.98
BGNE,27.69
BGS,29.8
BH,191.57
BHA,963
BHAC,9.88
BHACR,0.16
BHACW,0.1
BHBK,13.94
BHC,23.05
BHE,29.45
BHGE,32.33
BHLB,40.5
BHP,48.48
BHR,11.74
BHVN,37.37
BIB,38.06
BICK,19.88
BID,55.5
BIDU,187.92
BIG,41.65
BIIB,250.78
BIND,1.86
BIO,300.52
BIOC,1.43
BIOD,0.34
BIOL,1.6
BIOS,2.23
BIP,40.18
BIS,47.37
BITA,23.98
BITE,25.67
BITI,26.1
BJ,27
BJRI,43.69
BK,53.7
BKCC,9.13
BKD,9.3
BKE,23.1
BKEP,5.02
BKEPP,6.61
BKH,61.2
BKHU,65.56
BKI,55.15
BKMU,7.66
BKS,5.35
BKSC,16.02
BKU,39.75
BLBD,10.04
BLCM,8.14
BLD,80.5
BLDP,1.43
BLDR,10.11
BLFS,1.82
BLIN,0.82
BLK,503.96
BLKB,62.3
BLL,37.41
BLMN,17.3
BLMT,22.31
BLPH,2.88
BLRX,1.05
BLUE,44.64
BLVD,9.7
BLVDU,9.85
BLVDW,0.35
BLX,24.28
BMA,66.05
BMI,45.4
BMO,78.84
BMRC,50.02
BMRN,80.94
BMS,41.81
BMTC,25.69
BMY,56.43
BNCL,13.48
BNCN,21.25
BNDX,54.35
BNED,5.46
BNFT,32.29
BNO,20.16
BNS,57.79
BNSO,1.42
BNTC,1.75
BOBE,46.88
BOCH,6.5
BOFI,19.2
BOFIL,25.3
BOH,84.51
BOJA,16.79
BOKF,58.59
BONA,13.58
BONT,2.6
BOOM,6.84
BOOT,23.11
BORN,1.13
BOSC,1.78
BOTA,1.6
BOTJ,11.75
BOX,26.36
BP,44.62
BPFH,11.43
BPFHP,25.45
BPFHW,4.57
BPI,6.79
BPL,35.67
BPMC,17.03
BPMP,21
BPOP,28.57
BPOPN,20.01
BPT,28.45
BPTH,1.92
BR,117.72
BRC,37.3
BRCD,10.48
BREW,8.64
BRFS,5.92
BRID,10.5
BRKA,289000
BRKB,192
BRKL,10.99
BRKR,27.22
BRKS,10.09
BRO,29.01
BRS,14.1
BRSS,31.2
BRT,14.1
BRX,17.27
BSAC,31.5
BSBR,8.11
BSET,33.2
BSF,9.29
BSFT,36.5
BSIG,13.75
BSM,17.93
BSMX,7.82
BSPM,2.28
BSQR,5.83
BSRR,19.08
BSTC,35.37
BSTI,10.53
BSX,33.15
BT,14.75
BTE,3.26
BTI,51.09
BTU,43.86
BUD,103.42
BUFF,24.48
BUR,2.47
BURL,149.13
BUSE,20.96
BV,21.77
BV,3.33
BVA,4.1
BVN,12.54
BVSN,6
BW,2.25
BWA,44.86
BWEN,2.47
BWFG,19.51
BWINB,24.74
BWLD,149.34
BWP,12.05
BWXT,63.9
BX,35.33
BXC,36.52
BXE,0.95
BXG,24.23
BXMT,32.5
BXP,126.93
BXS,33.8
BY,22.74
BYD,37.93
BYFC,1.85
BYLK,15.21
BZH,15.24
BZUN,5.85
C%A,0.02
C,69.46
CA,30.74
CAAP,9.87
CAAS,4.14
CABO,749.29
CAC,42.04
CACB,5.66
CACC,198.01
CACI,178.1
CACQ,5.41
CADE,29.07
CADTR,0.07
CADTW,0.04
CAE,21.09
CAFD,14.3
CAG,35.69
CAH,50.71
CAI,22.03
CAJ,31.46
CAKE,53.42
CAL,33.54
CALA,5.87
CALD,15.13
CALI,1.05
CALL,7.17
CALM,52.69
CALX,7.7
CAMP,19.48
CAMT,2.06
CAPL,17.65
CAPN,1.38
CAPNW,0.34
CAPR,2.6
CAR,28.99
CARA,5.17
CARB,7.71
CARO,16.86
CARS,31.4
CART,5.98
CARZ,33.22
CASH,44.22
CASI,1.45
CASM,1.54
CASS,50.74
CASY,109.91
CAT,138.08
CATB,5.99
CATM,34.75
CATO,23.72
CATY,28.55
CATYW,7.61
CAVM,61.16
CB,133.37
CBAK,2.55
CBAN,9.2
CBAY,1.3
CBB,14.85
CBD,19.8
CBF,30.6
CBFV,19.97
CBIO,1.65
CBK,1.08
CBL,5.34
CBLI,2.53
CBM,55.35
CBMG,16.87
CBMX,5.34
CBNJ,13.29
CBNK,17.84
CBOE,64.85
CBPO,111.27
CBPX,31.5
CBRE,48.79
CBRL,153.64
CBS,58.83
CBSA,58.98
CBSH,45.16
CBSHP,26.73
CBT,62.7
CBU,61.38
CBYL,0.7
CBZ,22.8
CC,43.18
CCBG,14.87
CCCL,0.37
CCCR,0.4
CCD,17.39
CCE,41.43
CCI,110.57
CCIH,9.54
CCJ,10.78
CCK,44.75
CCL,58.4
CCLP,5.67
CCM,3.77
CCMP,40.37
CCNE,17.88
CCO,4.4
CCOI,37.63
CCR,15.05
CCRC,8.9
CCRN,11.1
CCS,32.45
CCU,25.8
CCUR,6.07
CCXI,2.62
CDAY,35.12
CDC,37.71
CDE,8.13
CDK,46.2
CDL,36.71
CDNA,4.47
CDNS,23.17
CDOR,1.49
CDORO,30.87
CDORP,11.9
CDR,4.86
CDRB,2.25
CDTI,0.72
CDTX,10.86
CDW,41.3
CDXS,3.26
CDZI,4.26
CE,108.57
CEA,32.54
CECE,6.43
CECO,4.74
CEIX,40.56
CEL,5.64
CELG,98.76
CELGZ,1.2
CELP,7.35
CEMI,5.6
CEMP,15.25
CENT,16.21
CENTA,16.14
CENX,7.59
CEO,161.87
CEPU,10.41
CEQP,33.85
CERC,4.23
CERCW,1.49
CERCZ,0.95
CERE,0.26
CERN,53.48
CERS,5.95
CERU,2.41
CETC,0.35
CETV,2.56
CETX,1.85
CEVA,21.57
CF,42.24
CFA,36.44
CFBK,1.45
CFCB,18.09
CFFI,38.34
CFFN,13.29
CFG,39.98
CFMS,9.32
CFNB,13.06
CFNL,20.02
CFO,36.45
CFR,111.79
CFRX,3.57
CFX,30.02
CG,17.15
CGA,1.17
CGC,27.61
CGEN,5.59
CGG,2.57
CGIX,2.79
CGNT,1.07
CGNX,41.28
CGO,10.97
CHA,45.5
CHCI,1.7
CHCO,46.81
CHCT,29.68
CHD,54.87
CHDN,144.99
CHE,321.96
CHEF,20.12
CHEK,3.02
CHEKW,0.9
CHEV,14.92
CHFC,35.39
CHFN,13.51
CHGG,29.13
CHH,77.2
CHI,9.46
CHK,4.9
CHKE,17.93
CHKP,82.98
CHKR,1.65
CHL,43.98
CHMA,9.8
CHMG,27.34
CHMI,17.97
CHNR,1.71
CHRA,10.16
CHRS,19.39
CHRW,74.34
CHS,8.25
CHSCL,27.6
CHSCM,26.15
CHSCN,27.17
CHSCO,28.19
CHSCP,31.19
CHSP,32.22
CHT,36.12
CHTR,201
CHU,12.04
CHUY,32.02
CHW,6.9
CHY,10.4
CI,172.35
CIA,7.96
CIB,48.94
CIBR,16.88
CIC%,1.35
CID,32.87
CIDM,0.24
CIEN,26.86
CIFC,6.49
CIG,1.97
CIGC,1.94
CIGI,34.68
CIL,33.3
CIM,18.79
CINF,65.78
CINR,27.46
CIO,12.9
CIR,39.17
CISG,7.28
CISN,16.23
CIT,51.93
CIVB,10.88
CIVI,16.1
CIZ,30.1
CIZN,23.18
CJ,22.81
CJJD,1.65
CKEC,29.69
CKH,53.7
CL,65.62
CLACW,0.65
CLB,116.75
CLBH,15.6
CLBS,0.81
CLCD,6.14
CLCT,17.35
CLD,3.11
CLDN,1.13
CLDR,14.83
CLDT,21.6
CLDX,3.23
CLF,8.2
CLFD,15.55
CLGX,53.37
CLH,56.72
CLI,19.87
CLIR,3.93
CLLS,27.17
CLMS,8.77
CLMT,13.88
CLNC,21.28
CLNE,3.07
CLNT,1.25
CLNY,6.08
CLPR,10.01
CLR,60.95
CLRB,4.94
CLRO,12.08
CLS,12.22
CLSN,1.5
CLUB,1.84
CLVS,19.44
CLW,23.55
CLWT,3.04
CLX,134.2
CM,88.46
CMA,90.7
CMC,21.69
CMCM,9.56
CMCO,15.3
CMCSA,59.76
CMCT,18.38
CMD,96.31
CME,95.95
CMFN,9.11
CMG,452.06
CMI,134.68
CMLS,0.56
CMO,8.57
CMP,66.55
CMPR,89.02
CMRE,7.77
CMRX,5.21
CMS,47.71
CMTL,25.01
CNA,47.8
CNAT,1.99
CNBKA,38.93
CNC,133.23
CNCE,13.04
CNCR,20.71
CNDT,18.19
CNET,0.67
CNFR,6.95
CNHI,10.27
CNI,84.75
CNIT,1.51
CNK,35.86
CNLM,10.1
CNLMW,0.06
CNMD,40.41
CNNE,19.65
CNO,19.85
CNOB,16.19
CNP,27.73
CNQ,36.32
CNS,43.51
CNSL,23.96
CNTF,4.14
CNTY,6.01
CNV,2.48
CNX,17.24
CNXM,19.17
CNXR,3
CNYD,2.99
CO,7.94
COB,13.33
COBZ,11.55
CODI,17.9
COE,10.07
COF,95.91
COG,23.7
COHR,89.43
COHU,12.01
COKE,171.15
COL,137.83
COLB,30.6
COLD,21.64
COLL,15.83
COLM,60.78
COMM,27.24
COMT,29.75
CONE,41.54
CONN,17.06
COO,242.7
COOL,0.74
COP,70.58
COR,113.1
CORE,81.88
CORI,4.36
CORT,4.35
COSI,0.91
COST,153.15
COT,16.85
COTV,44.45
COTY,14.23
COVS,2.12
COWN,3.69
COWNL,25.49
COYN,1.84
COYNW,0.52
CP,185.47
CPA,96.04
CPAC,11.57
CPAH,2.2
CPB,40.58
CPE,10.86
CPF,29.08
CPG,7.55
CPHC,10.61
CPHD,31.6
CPHR,4.58
CPIX,4.34
CPK,84.95
CPL,11.36
CPLA,52.84
CPLG,26.02
CPLP,2.97
CPRT,41.66
CPRX,1.12
CPS,133.17
CPSH,1.8
CPSI,51.95
CPSS,4.25
CPST,1.32
CPT,91.15
CPTA,11.58
CPXX,8.7
CR,81.19
CRAI,20.68
CRAY,41
CRBP,1.77
CRC,39.57
CRCM,21.33
CRDA,8.49
CRDB,8.46
CRDC,3.42
CRDS,0.28
CREE,29.77
CREG,0.31
CRESY,11.33
CRH,35.73
CRI,115.03
CRIS,1.51
CRK,11.19
CRL,117.66
CRM,146.96
CRME,3.99
CRMT,26.42
CRNT,1.14
CROX,10.03
CRR,9.49
CRS,56.47
CRT,14.7
CRTN,2.19
CRTO,40.29
CRUS,35.9
CRVL,41.03
CRWN,5.12
CRWS,9
CRY,29.3
CRZO,30.73
CS,15.24
CSA,33.27
CSAL,21.35
CSB,34.45
CSBK,15.14
CSCD,20.86
CSCO,28.33
CSF,32.78
CSFL,15.06
CSGP,186.5
CSGS,42.39
CSII,9.74
CSIQ,20.54
CSL,113.22
CSLT,4.6
CSOD,33.05
CSPI,6.16
CSQ,9.45
CSS,16.32
CSTE,36.79
CSTM,11.25
CSU,10.47
CSV,24.92
CSWC,13.94
CSWI,31
CSX,27.02
CTAS,90.49
CTB,25.2
CTBI,35.43
CTCM,1.92
CTG,5.09
CTHR,1.3
CTIB,4.93
CTIC,0.56
CTL,19.61
CTLT,42.86
CTMX,12.44
CTRE,11.96
CTRL,8.69
CTRN,18.72
CTRP,43.52
CTRV,1.14
CTS,36.95
CTSH,59.25
CTSO,4.66
CTT,12.86
CTWS,43.06
CTXS,77.07
CUB,68.95
CUBA,7.98
CUBE,31.5
CUBI,28.75
CUBN,15.01
CUI,8.3
CUK,58.11
CULP,24.9
CUNB,22.05
CUR,0.79
CURO,27.79
CUTR,11.34
CUZ,9.48
CVA,16.85
CVBF,17.33
CVCO,89.95
CVCY,11.27
CVE,10.39
CVEO,4.46
CVG,25
CVGI,2.52
CVGW,55.64
CVI,37.28
CVIA,16.94
CVLT,40.58
CVLY,20.04
CVNA,45.17
CVRR,23.2
CVS,68.24
CVTI,21.6
CVV,8.6
CVX,122.98
CW,124.02
CWAY,12.72
CWBC,6.9
CWCO,11.86
CWH,25.09
CWST,6.8
CWT,41
CX,6.7
CXDC,3.51
CXO,147.86
CXP,22.71
CXRX,26.92
CXSE,45.67
CXW,24.73
CY,8.82
CYAD,47.63
CYAN,5.06
CYBE,9.73
CYBR,41.63
CYCC,0.42
CYCCP,5.25
CYD,19.98
CYH,2.69
CYHHZ,0.0061
CYNA,12.4
CYNO,41.22
CYOU,19.26
CYRN,1.74
CYRX,1.5
CYRXW,0.5
CYS,7.59
CYTK,6.21
CYTR,2.4
CYTX,0.16
CZFC,13.18
CZNC,20.34
CZR,6.57
CZWI,8.9
CZZ,7.98
D,69.88
DAC,1.75
DAIO,2.24
DAKT,7.88
DAL,50.67
DAN,20.72
DAR,19.8
DATA,108.57
DATE,7.36
DAVE,6.27
DAX,24.05
DB,12.14
DBD,12.25
DBVT,30.74
DCI,45.43
DCIX,0.59
DCO,34.85
DCOM,17.58
DCP,42.01
DCT,66.25
DCTH,0.31
DCUD,47.23
DDAY,0.29
DDD,15.22
DDE,1.92
DDR,14.3
DDS,85.62
DE,136.27
DEA,19.72
DECK,112.65
DEI,39.94
DENN,10.27
DEO,146.81
DEPO,13.3
DERM,19.88
DESP,20.26
DEST,10.05
DF,10.54
DFBG,5.14
DFIN,19.6
DFRG,16.62
DFS,70.56
DFVL,68.7
DG,99.13
DGAS,22.91
DGICA,14.49
DGII,8.73
DGLD,54.03
DGLY,4.97
DGRE,20.93
DGRS,27.92
DGRW,31.11
DGX,114.38
DHCP%A,0.6
DHCP%B,0.4
DHCP,5.68
DHI,41.98
DHIL,179.89
DHR,98.17
DHRM,1.76
DHT,4.57
DHX,2.15
DIN,71.26
DIOD,20.02
DIS,110.2
DISCA,29.42
DISCB,29.34
DISCK,28
DISH,49.13
DJCO,192.99
DK,47.28
DKL,27.8
DKS,33.99
DL,7.33
DLB,62.43
DLBL,78.6
DLBS,16.27
DLHC,3.35
DLNG,8.09
DLPH,43.71
DLR,115.66
DLTH,19.77
DLTR,80.02
DLX,65.89
DM,13.95
DMLP,10.7
DMRC,28.55
DMTX,8.74
DNAI,6.83
DNB,126.98
DNBF,28.82
DNKN,46.54
DNO,47.61
DNOW,13.95
DNR,4.64
DO,20.23
DOC,15.86
DOOR,70.3
DORM,54.38
DOV,74.1
DOX,59.72
DPLO,25.94
DPRX,7.15
DPZ,279.19
DQ,35.48
DRAD,4.9
DRAM,0.75
DRD,2.38
DRE,28.83
DRH,12.31
DRI,111.28
DRIO,3.8
DRIOW,0.8
DRNA,5.13
DRQ,57.55
DRRX,1.34
DRWI,2.31
DRWIW,0.006
DRYS,2.41
DS,7.3
DSCI,3.25
DSCO,1.65
DSGX,18.18
DSKX,1.39
DSKY,13.7
DSLV,43.05
DSPG,8.93
DSW,26.7
DSWL,1.73
DSX,4.44
DTE,106.3
DTEA,11.95
DTLK,7.85
DTRM,1.85
DTSI,22.49
DTUS,30.5
DTV,51.99
DTYS,15.5
DUK,80.78
DVA,71.71
DVAX,17.26
DVCR,8.52
DVD,2
DVMT,94.78
DVN,44.21
DWA,26.45
DWAT,9.92
DWCH,5.35
DWDP,65.72
DWIN,25.46
DWSN,4.53
DWTR,23.42
DX,6.41
DXC,85.72
DXCM,60.73
DXGE,25.33
DXJS,30.87
DXLG,4.98
DXPE,18.32
DXPS,23.53
DXYN,4.37
DY,96.97
DYNC,94.8
DYNT,2.88
DYSL,1.65
E,37.68
EA,64.32
EAC,1.69
EACQ,9.7
EACQU,9.94
EAF,17.25
EAGLW,0.48
EARN,11.02
EARS,3.75
EAT,48.24
EBAY,23.77
EBAYL,24.98
EBF,19.8
EBIO,0.39
EBIX,41.18
EBR,3.92
EBS,53.91
EBSB,13.99
EBTC,23.33
EC,20.49
ECA,12.75
ECHO,28.04
ECL,142.62
ECOL,41.89
ECOM,15.3
ECPG,26.2
ECR,1.71
ECT,1.9
ECTE,1.31
ECYT,3.29
ED,79.2
EDAP,4.31
EDGE,7.31
EDGW,7.07
EDIT,29.36
EDN,32.88
EDR,41.56
EDU,95.38
EDUC,12.44
EE,60.2
EEFT,73.32
EEI,10.61
EEMA,51.39
EEML,28.83
EEP,10.93
EEQ,10.29
EEX,20.25
EFC,15.99
EFII,42.44
EFOI,7.2
EFSC,27.58
EFUT,6.29
EFX,126.64
EGAN,3.91
EGBN,47.38
EGHT,20.95
EGHT,9.58
EGL,34.72
EGLE,0.7
EGLT,6.02
EGN,73.83
EGO,1.09
EGOV,17.54
EGP,97.04
EGRX,43.5
EGT,2.03
EGY,2.91
EHC,69.1
EHIC,12.89
EHTH,9.85
EIG,41.75
EIGI,10.37
EIX,65.66
EL,140.95
ELEC,9.66
ELECW,0.18
ELF,15.46
ELGX,8.53
ELLI,103.25
ELNK,5.99
ELON,5.67
ELOS,7.37
ELP,5.35
ELRC,9.88
ELS,93.03
ELSE,3.53
ELTK,1.29
ELVT,10.15
ELY,18.63
EMCB,66.78
EMCI,25.12
EME,76
EMES,7.01
EMIF,29.14
EMITF,0.88
EMKR,5.15
EML,16.3
EMMS,0.59
EMN,98.61
EMR,69.31
ENB,35.36
ENBL,17.42
ENDP,29.84
ENFC,17.44
ENG,1.11
ENIA,8.51
ENIC,5.21
ENLC,15.75
ENLK,14.99
ENO,25.83
ENOC,7.55
ENPH,2.63
ENR,62.65
ENS,77
ENSG,21.88
ENT,8.74
ENTA,27.1
ENTG,13.08
ENTL,16.27
ENV,58.5
ENVA,37.25
ENZ,4.9
ENZL,39.46
ENZN,0.44
ENZY,8.26
EOCC,20.5
EOG,124.61
EPAM,132.26
EPAY,29.62
EPC,51.84
EPD,28.18
EPE,2.46
EPIQ,14.31
EPR,65.81
EPRS,2.83
EPRT,13.94
EPZM,10.96
EQBK,21.32
EQC,31.46
EQFN,8.32
EQGP,24.82
EQH,21.23
EQIX,315.76
EQM,54.62
EQNR,26.43
EQR,64.43
EQT,54.87
ERA,13.24
ERF,12.75
ERI,10.98
ERIC,9.82
ERIE,93.46
ERII,9.69
ERJ,21.75
EROS,13.75
ERS,3.35
ES,59.04
ESBA,17.22
ESBK,18.38
ESCA,12.6
ESE,60.25
ESEA,2
ESES,2.28
ESGR,158.82
ESIO,6.89
ESL,74.6
ESLT,90.07
ESMC,0.83
ESND,31.49
ESNT,36.33
ESPR,15.5
ESRT,17.3
ESRX,69.47
ESS,236.14
ESSA,13.57
ESTE,10.47
ESV,7.34
ESXB,5.14
ETE,17.05
ETFC,25.16
ETH,24.2
ETM,8.05
ETN,77.34
ETP,19.32
ETR,81.81
ETRM,1.07
ETSY,9.23
EUFN,18.58
EURN,8.7
EV,53.21
EVA,28.55
EVAR,0.85
EVBS,6.64
EVC,4.65
EVEP,2.06
EVH,22.6
EVHC,44.69
EVK,1.63
EVLV,0.79
EVOK,4.36
EVOL,5.78
EVR,107.55
EVRG,56
EVRI,7.85
EVSTC,100.01
EVTC,22.5
EW,146.68
EWBC,33.32
EWZS,8.49
EXA,11.63
EXAC,18.91
EXAS,6.28
EXC,42.15
EXEL,3.87
EXFO,3.17
EXK,2.9
EXLS,49.47
EXP,106.54
EXPD,48.48
EXPE,110.19
EXPO,50.8
EXPR,9.64
EXR,96.71
EXTN,27.79
EXTR,3
EXXI,0.92
EYEG,3.26
EYEGW,0.75
EYES,4.9
EZPW,3.01
F,10.85
FAF,51.89
FALC,1.43
FANG,77.62
FARM,26.07
FARO,32.64
FAST,49.05
FATE,1.83
FB,111.45
FBC,33.67
FBHS,55.13
FBIO,3.04
FBIZ,22.52
FBK,41.05
FBM,14.69
FBMS,16.05
FBNC,19.24
FBNK,16.22
FBP,7.89
FBR,18.52
FBRC,17.94
FBSS,15
FC,24.55
FCA,18.94
FCAP,26.52
FCAU,19.43
FCB,58.75
FCBC,19.54
FCCO,14.25
FCCY,12.68
FCEA,22.63
FCEL,7.99
FCF,15.82
FCFS,43
FCFS,90.9
FCLF,9.25
FCN,67.94
FCNCA,249.38
FCPT,24.81
FCS,20.04
FCSC,2.53
FCTY,10.99
FCX,16.77
FDC,22.25
FDEF,39.42
FDML,9.66
FDP,43.39
FDS,201.77
FDT,45.92
FDTS,31.92
FDUS,15.11
FDX,230.18
FE,36.15
FEDU,4.97
FEIC,86.94
FEIM,11
FELE,32.59
FELP,3.79
FEM,19.15
FEMB,40.78
FEMS,29.58
FENG,4.48
FENX,5.15
FEP,28.91
FES,0.5
FET,12.25
FEYE,18.36
FF,13.66
FFBC,18.36
FFG,81.3
FFHL,0.65
FFIC,21.57
FFIN,29.5
FFIV,102.31
FFKT,27.12
FFNW,13.24
FFWM,22.27
FG%,1.42
FG,8.56
FGEN,17.63
FGM,36.17
FGP,3.28
FHCO,2.11
FHK,32.3
FHN,17.89
FI,8.36
FIBK,28.18
FICO,202.51
FII,23.39
FINL,19.66
FIS,107.7
FISI,28.51
FISK,17.24
FISV,101.58
FIT,6.67
FITB,17.36
FITBI,28.88
FIVE,39.9
FIVN,7.8
FIX,47.45
FIZZ,41.99
FJP,44.89
FKO,24.34
FKU,37.75
FL,52.81
FLAG,31.89
FLAT,62.27
FLDM,7.53
FLEX,11.83
FLIC,28.66
FLIR,32.46
FLKS,11.01
FLL,1.42
FLML,10.82
FLN,15.48
FLO,20.28
FLOW,42.84
FLR,48.09
FLS,41.14
FLT,216.18
FLWS,7.65
FLXN,8.47
FLXS,44.26
FLY,13.83
FMB,52.71
FMBH,24.99
FMBI,18.35
FMC,86.72
FMER,21.28
FMI,16.6
FMNB,8.95
FMS,49.69
FMX,95.57
FN,39.21
FNB,13.34
FNBC,20.41
FND,47.63
FNF,37.23
FNFG,9.91
FNGN,30.25
FNHC,20.12
FNJN,1.04
FNLC,18.96
FNSR,17.88
FNTC,10.04
FNTCU,10.8
FNTCW,0.7
FNV,73.59
FNWB,12.62
FOE,20.23
FOGO,16.25
FOLD,7.86
FOMX,6.03
FONE,37.3
FONR,15.85
FOR,21.75
FORD,1.33
FORK,2.61
FORM,7.73
FORR,32.74
FORTY,30.05
FOSL,45.37
FOX,28.19
FOXA,28.23
FOXF,16.15
FPA,28.28
FPAC.U,10.17
FPH,12.25
FPI,6.1
FPRX,35.08
FPXI,25.72
FR,33.16
FRAC,12.55
FRAN,18.04
FRBA,6.54
FRBK,4.19
FRC,97.09
FRED,15.3
FREE,0.02
FRGI,35.37
FRME,23.78
FRO,5.11
FRP,15.69
FRPH,35.07
FRPT,7.66
FRSH,10.96
FRT,124.73
FSAM,3.41
FSB,36.4
FSBK,8.25
FSBW,25.5
FSC,5
FSCFL,24.86
FSFG,32.8
FSFR,7.55
FSLR,72.44
FSM,5.43
FSNN,1.86
FSS,23.68
FSTR,18.33
FSV,40.55
FSYS,5.79
FSZ,39.7
FTAG,4.1
FTAI,18.99
FTCS,39.31
FTD,25.87
FTEK,1.73
FTGC,20.63
FTHI,19.84
FTI,30.58
FTK,2.9
FTLB,19.71
FTNT,28.7
FTR,5.28
FTRI,10.35
FTRPR,99.18
FTS,32.49
FTSI,12.3
FTSL,47.59
FTSM,59.92
FTV,76.46
FTW,30.94
FUEL,3.51
FUL,54.64
FULL,2.38
FULLL,25.05
FULT,13.6
FUN,60.24
FUNC,10.9
FUND,6.09
FV,21.38
FWM,0.39
FWP,15.76
FWRD,45.8
FXCB,19.4
G,29.91
GABC,32.51
GAIA,5.59
GAIN,7.04
GAINN,24.04
GAINO,24.52
GAINP,25.7
GALE,0.88
GALT,1.35
GARS,10.39
GASS,3.42
GATX,77
GBCI,25.8
GBDC,17.24
GBIM,1.79
GBL,27.09
GBLI,31.79
GBLIZ,23.93
GBNK,15.25
GBSN,0.16
GBT,15.62
GBX,55
GCAP,7.56
GCBC,16.55
GCI,10.15
GCO,39.4
GCP,28.1
GCVRZ,0.09
GD,191.5
GDDY,77.16
GDEN,10.45
GDI,28.11
GDOT,78.04
GE,13.9
GEF,52.14
GEFB,57.55
GEL,22.74
GEN,1.54
GENC,13.72
GENE,2.23
GEO,26.79
GEOS,11.99
GERN,2.86
GES,22.14
GEVO,0.38
GFA,5.4
GFF,17.85
GFI,3.57
GFN,4.48
GFNCP,67.86
GFNSL,22.39
GG,13.13
GGAC,9.93
GGACR,0.16
GGACW,0.05
GGAL,29.47
GGB,4.02
GGG,45.9
GGP,20.81
GHC,562.85
GHDX,23.01
GHG,18
GHL,31.8
GHM,25.75
GIB,65.85
GIFI,8.42
GIGA,1.35
GIGM,3.06
GIII,54.67
GIL,28.37
GILD,90.27
GILT,4.32
GIS,43.96
GK,72.27
GKOS,41.49
GLAD,7.28
GLADO,24.63
GLBL,3.28
GLBS,0.17
GLBZ,10.81
GLDC,4.42
GLDD,4.29
GLDI,10.74
GLMD,4.5
GLNG,20.23
GLOB,57.68
GLOG,17.15
GLOP,23.3
GLP,17.3
GLPG,41.94
GLPI,29.53
GLRE,21.86
GLRI,0.24
GLT,19.88
GLUU,3.16
GLW,28.6
GLYC,6.06
GM%B,21.87
GM,39.56
GMAN,2.41
GME,15.22
GMED,52.18
GMLP,14.94
GMRE,8.58
GMS,25.34
GNBC,8.37
GNC,3.23
GNCA,4.34
GNCMA,18.06
GNE,5.97
GNK,14.51
GNL,20.7
GNMA,50.67
GNMK,5.51
GNOW,0.31
GNRC,52.38
GNRX,23.52
GNTX,15.8
GNVC,1
GNW,4.65
GOGL,0.68
GOGO,11
GOL,6.38
GOLD,93.46
GOLF,23.89
GOOD,16.36
GOODN,25.71
GOODO,25.1
GOODP,25.4
GOOG,737.6
GOOGL,755.41
GOOS,61.12
GPC,93.24
GPI,65.38
GPIA,9.72
GPIC,9.62
GPK,14.75
GPMT,18.56
GPN,117
GPOR,29.43
GPP,13.4
GPRE,16.13
GPRK,19
GPRO,12.88
GPS,29.48
GPT,27.37
GPX,19.15
GRA,73.67
GRAM,3.67
GRBK,7.66
GRC,36.11
GRFS,15.17
GRID,33.97
GRIF,24
GRMN,39.63
GROW,1.69
GRPN,4.05
GRPU,41.61
GRSH,9.52
GRSHW,0.35
GRUB,110.18
GRVY,3.17
GS,231.44
GSBC,37.94
GSIG,13.7
GSIT,4.39
GSK,41.2
GSL,1.17
GSM,9.23
GSOL,7.61
GSVC,6.24
GT,32.41
GTES,15.37
GTIM,3.99
GTLS,20.92
GTN,15.3
GTNA,14.7
GTS,38.28
GTT,46.45
GTWN,20.65
GTXI,0.66
GTY,28.45
GUID,4.41
GULF,17.07
GURE,1.82
GVA,54.23
GWB,41.06
GWGH,6.27
GWPH,72.72
GWR,81.61
GWRE,94.26
GWW,302.92
GZT,9.09
H,80.85
HA,45.85
HABT,18.97
HAE,94.56
HAFC,22.43
HAIN,40.94
HAL,44.96
HALL,10.87
HALO,8.39
HART,1.7
HAS,78.49
HASI,19.77
HAWK,34.03
HAYN,39.98
HBAN,9.67
HBANP,1369.16
HBB,27.57
HBCP,26.69
HBHC,24.76
HBHCL,24.83
HBI,21.86
HBIO,2.77
HBM,5.15
HBMD,12.01
HBNC,24.56
HBP,3.75
HCA,106.83
HCAC,9.68
HCACU,9.8
HCAP,11.39
HCAPL,25.23
HCC,25.72
HCCI,8.98
HCFT,3.41
HCHC,5.73
HCI,41.52
HCKT,15.14
HCLP,11.75
HCOM,23.48
HCP,25.78
HCSG,35.71
HD,198.88
HDB,110.67
HDNG,10.47
HDP,11.01
HDRA,9.9
HDRAU,10.1
HDS,31.93
HDSN,3.49
HE,34.6
HEAR,1.27
HEES,18.04
HEI,76.33
HEIA,65.3
HELE,103.66
HEOP,7.42
HEP,29.3
HERO,2.07
HES,63.88
HESM,19.6
HF,34.53
HFBC,11.75
HFBL,22.5
HFC,68.9
HFFC,17.84
HFWA,17.81
HGSH,1.99
HGT,0.63
HGV,34.94
HHC,141.56
HHS,11.01
HI,48.75
HIBB,36.33
HIFR,21.81
HIFS,119.87
HIG%,47.95
HIG,53.07
HIHO,4.83
HII,226.95
HIIQ,6.25
HIL,5.9
HIMX,10.49
HIVE,4.05
HIW,50.52
HK%,0.25
HK,3.73
HL,3.43
HLF,53.68
HLI,51.35
HLIT,3.22
HLT,80.08
HLX,8.56
HMC,29.15
HMHC,20.05
HMI,9.13
HMIN,35.47
HMLP,17.65
HMN,44.75
HMNF,11.53
HMNY,1.47
HMPR,1.7
HMST,20.57
HMSY,13.56
HMTV,12.81
HMY,1.61
HNH,24.13
HNI,38.63
HNNA,27.4
HNP,28.3
HNRG,5.09
HNSN,2.65
HOFT,33.53
HOG,42.94
HOLI,20.42
HOLX,34.48
HOMB,41.62
HOME,36.32
HON,146.4
HOS,5.27
HOTR,0.83
HOTRW,0.05
HOV,1.66
HOVNP,2.63
HP,62.55
HPE,15.64
HPJ,2.37
HPP,34.86
HPQ,23.57
HPR,6.39
HQCL,14.66
HQY,23.03
HR,28.89
HRB,24
HRC,91.38
HRI,59.11
HRL,37.17
HRMN,9.96
HRMNU,10.25
HRS,149.57
HRTG,16.98
HRTX,17.07
HRZN,11.43
HSBC,47.5
HSC,22.6
HSGX,2.43
HSIC,167.62
HSII,23.63
HSKA,27.99
HSNI,54.68
HSON,2.53
HST,21.02
HSTM,20.82
HSY,92.75
HT,22.47
HTA,26.75
HTBI,18.75
HTBK,10.18
HTBX,0.69
HTCH,3.63
HTGM,2.63
HTH,21.88
HTHT,35.83
HTLD,19.75
HTLF,32.25
HTWR,30.37
HTZ,13.77
HUBB,112.15
HUBG,38.57
HUBS,132.35
HUD,17.09
HUM,315.68
HUN,29.22
HURC,30.96
HURN,58.42
HUYA,37.92
HVT,21.3
HWAY,10.25
HWBK,14.95
HWCC,7.22
HWKN,36.13
HXL,67.51
HY,63.77
HYGS,7.93
HYLS,47.68
HYND,18.49
HYZD,21.93
HZN,6.87
HZNP,14.02
HZO,20.5
I,20.38
IAC,47.07
IAG,5.83
IART,65.32
IBA,61.65
IBB,251.34
IBCP,14.69
IBKC,53.21
IBKCP,25.14
IBKR,39.04
IBM,145.46
IBN,7.72
IBOC,25.31
IBP,54.8
IBTX,30.17
ICAD,5.01
ICBK,20.24
ICCC,6.91
ICD,4.33
ICE,75.19
ICFI,33.97
ICL,4.76
ICLD,0.74
ICLDW,0.25
ICLN,9.36
ICLR,71.7
ICON,8.43
ICPT,120.14
ICUI,99.15
IDA,92.97
IDCC,53.84
IDLB,24.43
IDRA,2.1
IDSA,2.98
IDSY,4.6
IDT,5.56
IDTI,20.33
IDXG,0.23
IDXX,75.45
IEP,65.12
IESC,13.17
IEUS,44.96
IEX,137.42
IFEU,37.55
IFF,127.38
IFGL,29.19
IFON,1
IFV,17.01
IGF,38.64
IGLD,17.66
IGOV,96.74
IGT,24.4
IHC,33.95
IHG,65.32
III,3.99
IIIN,28.5
IIJI,10.6
IILG,13.74
IIN,6.54
IIPR,32.72
IIVI,21.48
IKGH,1
IKNX,11.7
ILMN,150.24
IMAX,23.55
IMDZ,12.25
IMGN,7.75
IMI,2.72
IMKTA,36.07
IMMR,8.36
IMMU,2.63
IMMY,4.34
IMNP,0.49
IMOS,17.47
INAP,2.7
INBK,23.82
INCR,40.91
INCY,65.07
INDB,47.66
INDY,26.32
INFI,6.34
INFN,16.38
INFY,19.6
ING,14.73
INGN,41.24
INGR,98.01
ININ,34.04
INN,14.15
INNL,8
INO,7.12
INOD,2.3
INOV,18.71
INSM,11.86
INSP,43.02
INST,46
INSW,21.32
INSY,17.99
INT,20.87
INTC,32.68
INTL,27.7
INTLL,25.51
INTU,102.01
INTX,2.85
INVA,12.23
INVE,2.24
INVH,23.27
INVT,1.94
INWK,7.61
INXN,64.03
IO,24.7
IONS,38.65
IOSP,44.27
IOTS,5.85
IP,52.46
IPAR,30.05
IPAS,1.14
IPCC,78.3
IPCI,2.05
IPDN,0.51
IPG,23.7
IPGP,94.69
IPHI,34.12
IPHS,30.44
IPI,3.95
IPKW,27.22
IPOA%,1.74
IPOA,9.99
IPOAU,10.5
IPWR,4
IPXL,31.43
IQNT,15.45
IQV,107.69
IR,89.96
IRBT,34.66
IRDM,7.58
IRET,5.47
IRG,3.06
IRIX,10.38
IRM,36.36
IRMD,18.65
IROQ,19.03
IRS,17.98
IRT,10.13
IRWD,10.26
ISBC,11.46
ISCA,36.91
ISHG,81.51
ISIG,2.93
ISIL,13.5
ISLE,12.4
ISM,23.26
ISNS,2.66
ISRG,583.05
ISRL,79.32
ISSC,2.61
ISTR,15.43
IT,139.66
ITCB,15.35
ITCI,24.16
ITEK,7.62
ITEQ,23.63
ITG,22.25
ITGR,72.9
ITI,2.49
ITIC,89.51
ITRI,42.26
ITRN,18.46
ITT,52.09
ITUB,11.41
ITUS,2.85
ITW,141.82
IVAC,4.91
IVC,17.2
IVR,16.05
IVTY,6.72
IVZ,25.5
IX,81.01
IXUS,49.54
IXYS,12.3
IZEA,7.85
JACK,64.86
JAG,14.08
JAGX,1.74
JAKK,7.54
JASN,3.27
JASNW,0.12
JASO,8.89
JAX,11.55
JAZZ,118.3
JBGS,36.79
JBHT,86.71
JBL,28.71
JBLU,20.31
JBSS,67.62
JBT,90.15
JCAP,19.1
JCI,34.76
JCOM,61.04
JCP,2.41
JCS,6.98
JCTCF,10.5
JD,27.08
JE,3.67
JEC,65.45
JEF,22.69
JELD,28.74
JHG,30.77
JHX,16.84
JILL,8.4
JIVE,3.68
JJSF,105.47
JKHY,82.83
JKI,124.4
JKS,14.05
JLL,167
JMBA,12.28
JMEI,2.25
JMP,5.33
JNJ,124.69
JNP,7.31
JNPR,27.86
JOBS,30.84
JOE,18
JONE,0.36
JOUT,22.23
JP,16.53
JPM%,70.43
JPM,110.58
JRJC,5.36
JRVR,32.49
JSM,19.4
JSMD,26.78
JSML,26.19
JST,5.77
JSYNU,9.95
JT,5.69
JTPY,2.88
JUNO,39.44
JVA,4
JWA,67.45
JWB,67.1
JWN,52.43
JXSB,26
JYNT,3.12
K,70.59
KAI,95.15
KALU,83.66
KAMN,66.71
KANG,21
KAR,60.12
KB,47.97
KBAL,11.8
KBH,27.01
KBR,18.68
KBSF,0.4
KCAP,3.16
KDMN,3.32
KDP,24.8
KE,12.07
KEG,16.63
KELYA,17.69
KEM,28.91
KEN,14.91
KEP,13.7
KERX,4.7
KEX,84.55
KEY,19.92
KEYS,59.62
KEYW,6.59
KFRC,18.55
KFS,2.85
KFY,64.96
KGC,3.73
KGJI,1.08
KHC,77.31
KIM,16.5
KIN,3.43
KINS,8.6
KIRK,17
KITE,44.33
KKR,26.6
KL,23.05
KLAC,71.18
KLIC,11.35
KLREU,9.98
KLXI,32.59
KMB,105.4
KMDA,3.86
KMG,74.25
KMI,17.8
KMPH,14.45
KMPR,75.15
KMT,36.25
KMX,77.25
KN,15.79
KNDI,8.06
KNL,21.61
KNOP,21.9
KNX,36.36
KO,44.73
KODK%,0.04
KODK,3.75
KOF,61.73
KONA,12.92
KONE,2.45
KOOL,4.02
KOP,37.45
KOPN,1.8
KORS,67.17
KOS,8.2
KOSS,2.21
KPTI,8.32
KR,27.99
KRA,47.45
KRC,75.43
KREF,20.64
KRG,16.72
KRNT,10.5
KRNY,12.42
KRO,21.73
KRP,22.85
KS,34.7
KSS,70.65
KSU,104.95
KT,13.42
KTCC,7.13
KTEC,7.07
KTOS,4.55
KTOV,3.7
KTOVW,0.74
KTWO,12.82
KURA,4.34
KUTV,0.84
KVHI,8.93
KW,21.55
KWEB,35.9
KWR,157.42
KZ,7.3
L,49.81
LABL,52.57
LAC,5.09
LAD,95.84
LADR,16.03
LAKE,12.08
LALT,22.72
LAMR,59.7
LANC,106.75
LAND,9.47
LARK,25.1
LAWS,20.63
LAYN,7.01
LAZ,50.47
LB,32.02
LBAI,10.31
LBIO,5
LBIX,2.35
LBRDA,57.54
LBRDK,57.02
LBRT,17.68
LBTYA,38.05
LBTYK,37.08
LC,4.45
LCI,12.55
LCII,93.25
LCNB,16.35
LCUT,12.82
LDL,44.3
LDOS,62.49
LDRH,22
LE,26.23
LEA,186.71
LECO,59.63
LEDS,0.27
LEE,3.2
LEG,45.25
LEJU,1.53
LEN,54.05
LENB,44.2
LENS,4.94
LFC,12.57
LFGR,11.45
LFUS,122.75
LFVN,9.29
LGC,9.61
LGCU,9.98
LGCY,1.08
LGCYO,2.43
LGCYP,2.74
LGFA,25.35
LGFB,23.84
LGIH,24.05
LGND,98.97
LH,186.44
LHCG,34.45
LHO,34.74
LIFE,5.3
LII,212.56
LILA,34.95
LILAK,37.36
LIME,3.38
LINC,2.68
LIND,9.24
LINDW,2.54
LINE,0.57
LION,16.03
LIOX,4.95
LITB,1.75
LITE,26.08
LIVE,1.39
LIVN,54.19
LJPC,19.32
LKFN,46.17
LKM,1.14
LKOR,51.54
LKQ,30.83
LKSD,14.12
LL,25.46
LLEX,0.21
LLL,204.2
LLNW,1.65
LLTC,44.56
LLY,89.07
LM,33.14
LMAT,13.37
LMBS,51.09
LMCA,38.59
LMCB,40.4
LMCK,37.42
LMFA,8.4
LMIA,9.17
LMNR,15.25
LMNX,19.34
LMOS,12.84
LMRK,14.66
LMT,319.05
LN,45.07
LNC,64.31
LNCE,31.73
LNCO,0.53
LND,3.61
LNDC,10.41
LNN,93.97
LNT,42.78
LNTH,1.96
LOAN,4.16
LOB,14.89
LOCO,13.26
LOGI,16.07
LOGM,51.53
LOJN,6.44
LOMA,10.42
LONG,17.66
LOPE,42.77
LORL,37.19
LOW,99.63
LOXO,21.41
LPCN,10.11
LPG,7.62
LPI,9.47
LPL,8.65
LPLA,25.76
LPNT,66.28
LPSB,15.7
LPSN,5.78
LPT,44.44
LPTH,2.2
LPTN,0.21
LPX,28.58
LQDT,5.66
LRAD,1.75
LRCX,79.42
LRN,17.57
LSBG,14.07
LSCC,6.25
LSI,96.8
LSTR,67.29
LTBR,0.6
LTC,41.81
LTM,10.24
LTN,9.69
LTRPA,21.61
LTRX,0.9
LTXB,20.52
LUB,2.53
LULU,62.51
LUNA,0.99
LUV,53.08
LVHD,26.89
LVNTA,39
LVS,74.08
LW,70.2
LWAY,11.13
LXFR,18.6
LXFT,38.45
LXP,8.79
LXRX,12.18
LXU,6.89
LYB,106.22
LYG,3.34
LYTS,10.77
LYV,51.24
LZB,29.95
M,36.99
MA,204.08
MAA,99.14
MAC,57.51
MACK,7.85
MAGS,4.85
MAMS,5.5
MAN,85
MANH,57.38
MANT,31.8
MANU,21.4
MAR,73.16
MARA,1.99
MARK,4.59
MARPS,5.01
MAS,37.69
MASI,39.84
MAT,32.78
MATR,4.25
MATW,49.95
MATX,36.77
MAUI,23.73
MAXR,51.87
MB,13.68
MBCN,33.7
MBFI,33.39
MBI,9.39
MBII,1.1
MBLX,2.03
MBRG,20.34
MBSD,24.85
MBT,8.98
MBTF,8.01
MBUU,15.28
MBVT,30
MBWM,23.78
MC,59.65
MCB,51.76
MCBC,6.12
MCD,158.78
MCEP,1.67
MCFT,13.34
MCHI,42.15
MCHP,49.11
MCHX,4.4
MCK,135.58
MCO,182.32
MCOX,3.88
MCRB,24.77
MCRI,20.48
MCRN,18.87
MCS,33
MCUR,0.97
MCY,44.15
MD,43.92
MDC,32.02
MDCA,23.52
MDCO,30.55
MDIV,18.66
MDLY,3.65
MDLZ,40.74
MDM,3.74
MDP,53.05
MDR,17.72
MDRX,12.64
MDSO,36.83
MDSY,2.05
MDT,87.73
MDU,29.15
MDVN,35.82
MDVX,1.24
MDWD,7.85
MDXG,8.31
MED,166.39
MEET,2.93
MEI,39.2
MEIP,1.19
MELI,114.7
MEMP,2.44
MENT,19.94
MEOH,35.32
MERC,8.95
MESG,19.86
MESO,10.34
MET,44.44
MFA,7.77
MFC,18.06
MFCB,6.26
MFG,3.37
MFGP,16.37
MFLX,23.11
MFNC,10.33
MFRI,7.49
MFRM,42.29
MFSF,25.31
MG,21.27
MGA,59.78
MGCD,6.05
MGEE,50.48
MGI,6.36
MGIC,7
MGLN,66.82
MGM,31.12
MGNX,16.15
MGP,30.4
MGPI,23.1
MGRC,25.24
MHGC,1.54
MHK,221.52
MHLD,13.08
MHLDO,48.31
MHO,27.2
MIC,44.6
MICT,2.05
MIDD,102.84
MIFI,1.68
MIK,27.5
MIME,10
MIND,3.02
MINI,31.47
MIRN,5.1
MITK,5.98
MITL,7.42
MITT,19.14
MIXT,18.44
MKC,118.47
MKCV,118.8
MKL,1142.93
MKSI,35.76
MKTO,18.13
MKTX,124.35
MLAB,91.07
MLHR,30.99
MLI,29.39
MLM,224.92
MLNK,1.66
MLNX,51.7
MLP,12.7
MLR,26.3
MLVF,16.38
MMAC,15.3
MMC,86.76
MMI,40.47
MMLP,20.78
MMM,201.11
MMP,67.73
MMS,64.45
MMSI,18.09
MMYT,19.53
MN,3.05
MNDO,2.09
MNGA,1.16
MNK,21.37
MNKD,2
MNOV,5.85
MNR,16.76
MNRK,16.56
MNRO,68.96
MNST,136.53
MNTA,8.63
MNTX,5.92
MO,57.14
MOBI,2.15
MOBL,4.26
MOCO,13.93
MOD,17.75
MODN,19.15
MOFG,27.48
MOGA,78.3
MOH,105.99
MOKO,0.27
MOLG,0.77
MOMO,12.79
MORN,84.6
MOS,27.98
MOSC,9.7
MOSY,0.73
MOV,47.3
MPAA,37.99
MPC,71.42
MPEL,17.27
MPET,1.1
MPLX,33.77
MPO,13.39
MPW,14.34
MPWR,62.54
MPX,19.15
MRC,21.81
MRCC,14.32
MRCY,17.17
MRD,10.12
MRK,62.59
MRKT,29.49
MRLN,13.97
MRNS,4.97
MRO,20.04
MRT,11.22
MRTN,18.66
MRTX,19.71
MRVC,9.46
MRVL,10.37
MS,48.9
MSA,97.49
MSB,25.5
MSBF,12.66
MSCC,37.17
MSCI,170.58
MSEX,30.59
MSFG,21.88
MSFT,53.49
MSG,325.24
MSGN,24.15
MSI,121.35
MSL,13.7
MSLI,1.34
MSM,81.52
MSON,6.47
MSTR,175.12
MT,29.53
MTB,168.12
MTBC,0.89
MTCH,10.66
MTD,575.36
MTDR,31.67
MTEX,20.02
MTG,11.15
MTGE,14.44
MTGEP,24.4
MTH,45.75
MTL,3.27
MTLS,7.78
MTN,288.13
MTOR,20.53
MTP,4.09
MTR,14.8
MTRN,55.15
MTRX,18.13
MTSC,58.98
MTSI,43.06
MTSL,0.72
MTSN,3.66
MTW,26.98
MTX,74.4
MTZ,50.6
MU,11.14
MUFG,5.72
MUR,31.71
MUSA,79.7
MUX,2.21
MVIS,1.91
MVO,10.98
MWA,11.77
MX,11.15
MXIM,35.28
MXL,17.01
MXWL,6.26
MYE,17.95
MYGN,37.79
MYL,45.05
MYOK,9.32
MYOS,1.65
MYOV,20.49
MYRG,25.22
MZOR,10.04
NAII,11.7
NAKD,2.5
NAME,8.29
NANO,14.36
NAO,1.16
NAP,3.53
NAT,2.43
NATH,43.01
NATI,30.01
NATL,29.6
NATR,8.79
NAUH,1.67
NAV,41.74
NAVG,83.11
NAVI,12.42
NBHC,38.18
NBIX,35.06
NBL,34.86
NBLX,51.35
NBN,10.41
NBR,6.03
NBRV,8.82
NBTB,27.25
NC,33.35
NCBS,35.01
NCI,21.39
NCIT,13.69
NCLH,47.19
NCLH,52.45
NCMI,14.87
NCOM,23.94
NCR,30.99
NCS,20.55
NCTY,2.45
NDAQ,64.51
NDLS,12.78
NDRM,14.09
NDRO,3.7
NDSN,77.61
NE,6.26
NEE,169.5
NEEQ,75.39
NEER,57.48
NEM,36.5
NEO,6.27
NEOG,51.14
NEON,2.16
NEOS,9.79
NEOT,0.69
NEP,45.74
NEPT,1.06
NERV,5.77
NETE,0.29
NETS,1.93
NEU,401.44
NEW,19.03
NEWM,18.6
NEWP,22.87
NEWR,109.01
NEWS,8.6
NEWT,12.51
NEWTZ,25
NEXA,12.11
NFBK,16.41
NFC.U,10.04
NFEC,0.66
NFG,54.66
NFLX,101.12
NFX,29.09
NGG,56.59
NGHC,21.69
NGHCO,25.71
NGHCP,25.5
NGHCZ,24.15
NGL,12.25
NGS,22.15
NGVC,15.84
NGVT,87.79
NHI,74.85
NHLD,2.49
NHTC,30.79
NI,26.26
NICE,64.93
NICK,10.59
NIHD,5.54
NILE,25.39
NINE,30.53
NJR,45.85
NK,7.27
NKE,77.75
NKSH,34.2
NKTR,12.59
NL,8.65
NLNK,17.96
NLS,14.3
NLSN,31.17
NLST,1.59
NLY,10.38
NM,0.82
NMIH,5.25
NMM,2.04
NMR,4.85
NMRX,5.63
NNA,0.56
NNBR,12.94
NNDM,7.94
NNI,60.53
NNN,43.91
NOA,6.05
NOAH,46.52
NOC,320.33
NOK,5.88
NOMD,18.39
NOV,43.85
NOW,189.08
NP,86.3
NPBC,11.73
NPK,120
NPO,72.06
NPTN,6.36
NR,9.9
NRCIA,14.78
NRCIB,33.75
NRE,13.87
NRG,32.15
NRIM,23.19
NRP,32.25
NRT,7.92
NRX,0.48
NRZ,18.23
NS,24.61
NSA,30.61
NSC,155.23
NSH,13.5
NSIT,28.78
NSM,17.92
NSP,95.75
NSPH,0.81
NSSC,6.06
NSTG,16.11
NTAP,27.24
NTB,46.73
NTCT,21.95
NTEC,4.02
NTES,147.84
NTG$,0.19
NTGR,39.99
NTIC,12.47
NTK,48.72
NTLS,9.23
NTP,10.63
NTR,52.74
NTRA,8.81
NTRI,19.29
NTRS,66.04
NTRSP,26.75
NTWK,6.99
NTZ,1.58
NUAN,19.45
NUE,64.01
NURO,1.7
NUROW,0.34
NUS,75.78
NUTR,24.45
NUVA,47.08
NVAX,5.07
NVCN,4.27
NVCR,12.45
NVDA,33.81
NVDQ,9.75
NVEC,55.47
NVEE,25.98
NVET,3.1
NVFY,1.19
NVGN,2.18
NVGS,12.35
NVIV,7.15
NVLS,4.52
NVMI,10.67
NVO,49.52
NVR,3070.88
NVRO,58.71
NVS,78.59
NVT,24.86
NVTA,8.31
NVTR,4.3
NWBI,13.57
NWBO,1.4
NWE,58.26
NWFL,27.4
NWHM,10.01
NWL,27.77
NWLI,224.75
NWN,63.95
NWPX,9.89
NWS,12.91
NWSA,12.31
NWY,4.98
NX,17.5
NXPI,83.38
NXRT,28.18
NXST,48.17
NXTD,0.54
NXTDW,0.3
NXTM,14.71
NYCB,11.49
NYLD,18.15
NYLDA,18.09
NYMT,4.67
NYMTO,19.85
NYMTP,19.61
NYMX,2.23
NYNY,12.31
NYRT,17.73
NYT,25.8
O,54.91
OAK,40.55
OAS,11.9
OASM,3.09
OBCI,2.47
OBE,1.09
OC,64.45
OCC,2.29
OCFC,17.67
OCLR,4.55
OCLS,1
OCLSW,0.27
OCN,4.16
OCRX,2.91
OCUL,9.04
ODC,44.45
ODFL,69.84
ODP,5.76
OEC,31.2
OESX,1.45
OFC,29.34
OFED,19.36
OFG,15.25
OFIX,40.33
OFLX,34.33
OFS,12.31
OGCP,17.14
OGE,35.29
OGS,75.62
OGXI,0.8
OHAI,3.18
OHGI,0.9
OHI,31.32
OHRP,3.2
OI,16.54
OIBRC,4.99
OII,26.31
OIIM,1.5
OIS,33.05
OKE,70.01
OKSB,16.14
OLBK,18.06
OLED,52.6
OLLI,23.31
OLN,28.63
OLP,27.5
OMAB,43.23
OMAD%,1.09
OMAD,9.71
OMADU,10.18
OMC,78.1
OMCL,27.91
OMED,9.68
OMER,14.93
OMEX,5.32
OMF,33.66
OMI,17.37
OMN,9.7
OMP,19.66
ON,9.48
ONB,12.11
ONCE,34.99
ONCS,2.22
ONDK,7.33
ONE,11.73
ONEQ,188.29
ONTX,0.51
ONTY,1.29
ONVI,3.36
OOMA,15.95
OPB,35.04
OPGN,1.36
OPHT,40.83
OPOF,19.44
OPTT,2.46
OPXA,2.08
OPXAW,0.07
OPY,28.45
OR,9.42
ORA,51.81
ORAN,17.04
ORBC,9.26
ORBK,23.47
ORC,7.94
ORCL,48.46
OREX,0.57
ORI,20.12
ORIG,1.09
ORIT,16.89
ORLY,268.53
ORMP,6.17
ORN,8.69
ORPN,2.85
ORRF,16.97
OSB,41.36
OSBC,7.56
OSBCP,10.2
OSG,3.5
OSHC,17.48
OSIR,5.2
OSIS,63.16
OSK,72.5
OSM,24.25
OSTK,14.91
OSUR,7.37
OTEL,5.13
OTEX,49.32
OTIC,14.83
OTIV,0.95
OTTR,28.66
OUT,21.41
OUTR,37.99
OVAS,8.74
OVBC,22.71
OXBR,5.09
OXBRW,0.42
OXFD,10.85
OXGN,0.7
OXLC,7.83
OXLCN,24.92
OXLCO,24.58
OXM,88.76
OXY,82.53
OZM,2.06
OZRK,42.76
P,8.23
PAA,23.4
PAAS,10.74
PAC,99.93
PACB,8.35
PACEU,9.99
PACEW,0.4
PACW,36.94
PAG,48.71
PAGG,23.71
PAGP,23.37
PAGS,27
PAH,12.2
PAHC,25.82
PAM,37.63
PANL,2.32
PANW,214.36
PAR,16.9
PARN,2.52
PARR,17.13
PATI,21.48
PATK,45.71
PAY,22.87
PAYC,109.82
PAYX,53.99
PB,68.3
PBA,35.09
PBBI,8.5
PBCT,16.02
PBF,42.26
PBFX,20.75
PBH,38.21
PBHC,11.5
PBI,8.75
PBIB,1.14
PBIP,14.72
PBMD,0.93
PBPB,13.36
PBR,10.61
PBRA,9.24
PBT,8.98
PCAR,55.18
PCBK,16.39
PCCC,24.09
PCG,43.04
PCH,30.81
PCLN,1344.22
PCMI,8.1
PCO,0.57
PCOM,7.32
PCRX,47.82
PCTI,4.83
PCTY,31.67
PCYG,9.62
PCYO,4.89
PDBC,15.74
PDCE,57.14
PDCO,45.25
PDEX,3.3
PDFS,13.92
PDLI,3.16
PDM,19.96
PDS,3.62
PDVW,30.69
PE,31.49
PEB,39.05
PEBK,18.61
PEBO,19.36
PEG,51.81
PEGA,25.07
PEGI,19.1
PEI,10.94
PEIX,5.07
PEN,136.2
PENN,15.24
PER,2.7
PERF,2.5
PERI,2.14
PERY,19.19
PES,5.25
PESI,3.66
PETS,17.65
PETX,4.51
PF,65.22
PFBC,30.11
PFBI,14.88
PFBX,9
PFE,37.38
PFGC,38.3
PFIE,1.08
PFIN,11.18
PFIS,38.77
PFLT,11.57
PFMT,1.6
PFPT,53.1
PFS,27.57
PFSI,19.4
PFSW,12.73
PG,79.53
PGC,16.75
PGLC,3.78
PGNX,4.12
PGR,58.42
PGRE,15.55
PGTI,21.25
PGTI,9.74
PH,157.7
PHG,43.51
PHH,10.85
PHI,25.07
PHII,18.63
PHIIK,19.66
PHM,30.13
PHMD,0.59
PHX,20.5
PICO,10.83
PIH,5.56
PII,122.35
PINC,32.73
PIR,2.22
PIRS,1.63
PJC,75.7
PJT,52.78
PK,31
PKBK,13.22
PKD,0.32
PKE,23.59
PKG,114.29
PKI,75.5
PKOH,41.06
PKX,69.09
PLAB,9.85
PLAY,38.31
PLCE,80.44
PLCM,11.34
PLD,65.04
PLKI,51.63
PLNT,48.78
PLOW,47.25
PLPC,35.79
PLPM,3.46
PLT,77.54
PLUG,2.08
PLUS,79.47
PLXS,38.57
PM,81.92
PMBC,7.14
PMD,14.33
PME,1.24
PMT,18.74
PMTS,7.9
PNC%,73.94
PNC,140.89
PNFP,48.99
PNK,32.57
PNM,38.25
PNNT,6.2
PNQI,74.86
PNR,43.07
PNRA,209.94
PNRG,34.5
PNTR,6.28
PNW,80.31
PODD,31.61
POL,44.47
POOL,85.64
POPE,55.26
POR,43.28
POST,87.27
POWI,49.66
POWL,29.19
PPBI,21.12
PPC,25.15
PPDF,4.39
PPG,102.37
PPH,56.82
PPHM,0.44
PPHMP,16.8
PPL,28.52
PPSI,3.99
PQG,17.78
PRA,37.85
PRAA,30.25
PRAH,41.04
PRAN,0.53
PRCP,5.14
PRFT,19.99
PRFZ,94.31
PRGN,1.39
PRGNL,3.99
PRGO,75.04
PRGS,24.39
PRGX,4.74
PRI,104.8
PRIM,25.13
PRKR,0.33
PRLB,129.7
PRMW,9.3
PRO,38.33
PROV,17.44
PRPH,1.16
PRQR,4.27
PRSC,52.01
PRSP,22.77
PRSS,3.55
PRT,15.77
PRTA,37.32
PRTK,15.83
PRTO,6.92
PRTS,2.72
PRTY,16.55
PRU,96.3
PRXL,60.39
PRZM,0.37
PSA,225.54
PSAU,17.9
PSB,128.64
PSCC,58.54
PSCD,48.91
PSCE,15.21
PSCF,40.54
PSCH,63.91
PSCI,44.55
PSCM,31.83
PSCT,54.13
PSCU,43.84
PSDV,2.61
PSEC,7.11
PSIX,11.15
PSMT,84.33
PSO,11.96
PSTB,6.6
PSTG,24.11
PSTI,1.5
PSUN,0.12
PSX,111.32
PSXP,50.67
PTC,32.84
PTCT,5.93
PTEN,17.25
PTI,9.58
PTIE,2.09
PTLA,28.5
PTNR,4.47
PTR,71.5
PTSI,30.63
PTX,0.9
PTXP,9.83
PUB,16.36
PUK,45.83
PULB,16.03
PULM,3
PUMP,15.34
PVBC,13.99
PVG,8.34
PVH,148
PVTB,39.62
PVTBP,26.57
PVTL,25.77
PWOD,38.29
PWR,33.28
PWX,13.5
PX,167.04
PXD,183
PXLW,2.35
PXS,1.76
PYDS,2.08
PYPL,39.41
PZN,9.13
PZZA,57.27
QABA,37.27
QADA,20.54
QADB,16.19
QBAK,0.43
QCLN,15.19
QCOM,51.59
QCP,20.38
QCRH,23.94
QD,8.51
QDEL,17
QEP,12.09
QES,7.64
QGEN,21.81
QGEN,36.8
QHC,4.33
QINC,21.7
QIWI,14.02
QKLS,0.72
QLC,25.81
QLGC,13.29
QLIK,26.99
QLTI,2.11
QLYS,26.68
QNST,3.44
QPAC,9.73
QPACW,0.17
QQEW,42.07
QQQ,107.37
QQQC,21.2
QQQX,18.36
QQXT,39.13
QRHC,0.6
QRVO,50.69
QSII,14.88
QSR,63.22
QTEC,42.93
QTM,1.88
QTNT,8.66
QTS,40.9
QTWO,62.35
QTWW,0.34
QUAD,20.33
QUIK,1.13
QUMU,5.08
QUNR,35.15
QUOT,14.15
QURE,11.84
QVCA,25.07
QVCB,25.33
QYLD,22.27
R,73.09
RACE,142
RAD,1.64
RADA,0.37
RAIL,15.06
RARE,56.32
RAVE,5.59
RAVN,15.66
RBA,33.11
RBC,82.2
RBCAA,25.29
RBCN,0.82
RBPAA,2.07
RBS,6.57
RCI,50.43
RCII,15.74
RCKY,13.4
RCL,109.08
RCMT,5.42
RCON,1.29
RCUS,11.69
RDC,15.92
RDCM,13.94
RDEN,7.68
RDHL,11.8
RDI,11.99
RDN,16.58
RDNT,5.26
RDSA,69.07
RDSB,72.44
RDUS,32
RDVY,21.04
RDWR,12.12
RDY,29.78
RE,235.18
RECN,15.17
REDF,0.84
REFR,4.6
REG,61.03
REGI,8.99
REGN,364.51
REIS,23.58
RELL,5.33
RELV,0.8
RELX,22.7
RELY,7.76
REN,32.55
RENN,2.3
RENX,22.52
REPH,5.89
RES,14.73
RESI,10.27
RESN,2.95
REV,16.95
REVG,15.82
REX,72.98
REXI,6.39
REXR,30.7
REXX,1.19
RF,17.51
RFIL,3.5
RFP,11.35
RGA,137.75
RGCO,21.96
RGEN,24.08
RGLD,51.69
RGLS,6.66
RGNX,11.62
RGR,56.25
RGS,17.64
RGSE,0.75
RH,137.69
RHI,67.08
RHP,83.22
RHT,146.22
RIBT,1.1
RIBTW,0.3
RICK,9.05
RIG,13.1
RIGL,2.05
RIO,53.64
RITT,0.61
RITTW,0.12
RJF,94
RKDA,2.64
RL,129.9
RLGY,22.81
RLH,12.15
RLI,68.57
RLJ,22.66
RLJE,0.85
RLOC,1.77
RLOG,0.96
RLYP,13.46
RM,35.16
RMAX,55
RMBS,13.44
RMCF,9.95
RMD,108.97
RMGN,1
RMP,18.07
RMR,24.88
RMTI,6.07
RNET,12.86
RNG,78.85
RNGR,10.45
RNR,123.22
RNST,32.6
RNVA,0.98
RNWK,4.19
ROBO,24.42
ROCK,26.61
ROG,117.85
ROIA,1.46
ROIAK,1.47
ROIC,19.07
ROK,167.63
ROKA,0.73
ROL,55.03
ROLL,72.33
ROP,282.59
ROSG,1.3
ROST,59.3
ROVI,21.57
ROYT,2.28
RP,20.66
RPAI,12.79
RPD,12.67
RPM,60.01
RPRX,0.99
RPT,12.8
RPTP,4.16
RPXC,11.2
RRC,16.14
RRD,16.67
RRD,5.58
RRGB,64.31
RRM,13.1
RRTS,2.6
RS,89.91
RSG,69.38
RSPP,47.26
RST,16.79
RSTI,31.33
RSYS,4.03
RTEC,29.75
RTIX,4.04
RTK,2.31
RTN,199.61
RTRX,13.89
RTTR,1.32
RUBI,3.38
RUN,6.69
RUSHA,18.28
RUSHB,18.05
RUTH,17.76
RVI,35.49
RVLT,6.35
RVNC,16.62
RVSB,4.27
RWGE%,1.24
RWGE,9.77
RWLK,8.31
RWT,16.56
RXDX,5.5
RXII,0.28
RXN,29.24
RY,77.56
RYAAY,83.34
RYAM,17.86
RYB,21.8
RYI,11.8
RYN,37.97
S,5.65
SA,11.55
SAAS,9.61
SABR,27.3
SAEX,0.88
SAFE,18.85
SAFM,90.24
SAFT,56.64
SAGE,31.58
SAH,20.15
SAIA,29.07
SAIC,84.93
SAIL,27.43
SAJA,3.81
SAL,34.43
SALE,8.01
SALM,5.21
SALT,6.85
SAM,320.1
SAMG,12.39
SAN,5.47
SANM,22.18
SANW,4.06
SAP,120.57
SASR,28.05
SATS,45.03
SAUC,2.19
SAVE,39.04
SAVE,49.32
SB,3.43
SBAC,99.17
SBBP,4.2
SBBX,12.87
SBCF,15.54
SBCP,15.2
SBFG,10.55
SBGI,32.34
SBGL,2.33
SBH,15.52
SBLK,0.72
SBLKL,10.85
SBNY,140.29
SBOT,5.7
SBOW,30.86
SBR,44.6
SBRA,20.51
SBRAP,25.65
SBS,6.25
SBSA,3.32
SBSI,26.74
SBUX,59.7
SC,19.27
SCAI,43.43
SCCO,44.72
SCG,38.1
SCHL,36.38
SCHN,18.9
SCHW,51.06
SCI,37.62
SCL,79.9
SCLN,9.53
SCMP,10.35
SCON,0.24
SCOR,30.5
SCS,13.8
SCSC,40.23
SCSS,19.19
SCTY,27.06
SCVL,27.22
SCX,6.4
SCYX,4.29
SCZ,49.65
SD,17.25
SDLP,3.74
SDR,1.93
SDRL,21.14
SDT,1.95
SE,15.62
SEAC,5.28
SEAS,22.15
SEDG,26.2
SEE,42.49
SEED,1.41
SEIC,41.95
SELF,4.85
SEM,18.7
SEMG,24.2
SEMI,6.82
SEND,25.92
SENEA,32.35
SEP,35.44
SERV,61.84
SEV,10.02
SF,52.38
SFBC,22.8
SFBS,39.21
SFE,12.55
SFL,14.5
SFLY,45.78
SFM,29.75
SFNC,45.51
SFS,5.85
SFST,24.98
SFUN,3.52
SGBK,30.5
SGC,17.91
SGEN,33.92
SGI,6.81
SGMA,6.48
SGMO,5.37
SGMS,9.97
SGNL,0.52
SGNT,12.39
SGOC,3.27
SGRP,1.01
SGRY,15.31
SGU,9.69
SGYP,2.94
SHAK,65.85
SHBI,11.97
SHEN,25.68
SHG,39.71
SHI,62.65
SHIP,3.03
SHLD,16.09
SHLDW,5.11
SHLM,25.53
SHLO,6.13
SHLX,22.66
SHO,16.76
SHOO,37.62
SHOP,165.35
SHOR,7.41
SHOS,5.7
SHPG,160.97
SHSP,4.18
SHW,416.85
SID,2.03
SIEN,7.13
SIFI,14.12
SIFY,1.2
SIG,58.01
SIGI,35.73
SIGM,7.75
SILC,32.1
SIMO,36.3
SINA,47.78
SINO,0.59
SIRI,3.95
SITE,85.57
SITO,2.38
SIVB,98.94
SIVBO,25.96
SIX,69.81
SJI,33.8
SJIU,54.34
SJM,108.41
SJR,20.88
SJT,5.99
SJW,66.46
SKIS,3.36
SKLN,0.22
SKM,23.25
SKOR,50.96
SKT,23.26
SKUL,3.95
SKX,31.07
SKY,31.4
SKYS,2.75
SKYW,19.33
SKYY,29.12
SLAB,44.93
SLB,67.42
SLCA,25.88
SLCT,8.06
SLD,16.5
SLF,40.63
SLG,101.96
SLGN,52.96
SLM,6.54
SLMAP,47.06
SLMBP,42.83
SLP,8.82
SLQD,50.21
SLRC,17.49
SLVO,9.8
SM,26.05
SMAR,23.75
SMBC,23.43
SMBK,18.13
SMCI,32.9
SMED,5.08
SMFG,7.7
SMG,83.59
SMHI,23.2
SMI,6.22
SMLP,16.3
SMLR,1.93
SMMF,14.89
SMP,47.36
SMRT,7.65
SMSI,0.59
SMT,0.4
SMTA,11.04
SMTC,21.92
SMTX,1.41
SN,4.92
SNA,163.87
SNAK,5.95
SNAP,13.07
SNBC,21.64
SNC,13
SNCR,31.87
SNDK,76.57
SNDR,26.13
SNDX,11.52
SNE,53.27
SNFCA,5.37
SNHY,34.35
SNI,64.99
SNMX,2.97
SNN,35.56
SNP,88.68
SNPS,47.78
SNR,7.42
SNSS,0.55
SNTA,0.23
SNV,53.29
SNX,98.6
SNY,41.75
SO,47.71
SOCB,13.2
SOCL,18.3
SODA,14.42
SOFO,6.49
SOGO,11.13
SOHO,5.44
SOHOL,26.1
SOHOM,25.78
SOHU,53.04
SOI,14.3
SOL,2.5
SON,53.08
SONA,12.41
SONC,31.98
SONS,7.44
SORL,1.73
SOXX,91.57
SP,23.63
SPA,16.49
SPAN,18.92
SPAR,3.97
SPB,79.6
SPCB,4.65
SPEX,1.96
SPG,170.66
SPGI,211.47
SPH,23.39
SPHS,1.66
SPI,6.29
SPIL,7.56
SPKE,23.84
SPLK,47.76
SPLP,16.5
SPLS,10
SPN,9.51
SPNC,14.52
SPNE,14.46
SPNS,11.52
SPOK,16.63
SPOT,184.22
SPPI,5.96
SPR,87.76
SPRT,0.84
SPSC,40.65
SPTN,29.25
SPU,3.06
SPWH,13.32
SPWR,23.86
SPXC,36.2
SQ,66.95
SQBG,6.66
SQI,14.05
SQM,47.8
SQNM,1.47
SQNS,1.93
SQQQ,19.45
SR,72.25
SRAQU,10.32
SRC,8.16
SRCE,32.31
SRCL,122.1
SRCLP,91.11
SRDX,18.27
SRE,115.76
SRET,13.55
SREV,4.37
SRG,42.9
SRI,34.19
SRLP,24.75
SRNE,4.98
SRPT,18
SRSC,2.55
SRT,6.63
SSB,65.86
SSBI,13.16
SSD,62.71
SSFN,5.88
SSH,0.96
SSI,2.34
SSKN,0.99
SSL,37.66
SSNC,62.37
SSRG,10.57
SSRI,5.73
SSTK,50.58
SSW,9.34
SSYS,25.01
ST,50.34
STAA,7.52
STAF,2.39
STAG,27.2
STAR,10.61
STB,5.22
STBA,25.82
STBZ,20.61
STC,43.48
STCK,14.57
STDY,2.32
STE,109.72
STEM,0.27
STFC,22.56
STG,8.52
STI,68.7
STKL,4.92
STKS,2.78
STL,23
STLD,21.89
STLY,2.68
STM,22.74
STML,4.93
STMP,114.12
STN,25.8
STNG,2.5
STON,4.56
STOR,27.36
STPP,32.25
STRA,50.06
STRL,5.06
STRM,1.39
STRS,21.77
STRT,56.69
STRZA,28.08
STT,93.2
STWD,22.26
STX,36.57
STXS,1.02
STZ,213.45
STZB,213.25
SU,41.24
SUI,98.98
SUM,26.18
SUMR,1.59
SUN,25.7
SUNS,13.97
SUNW,2.91
SUP,17.55
SUPN,14.09
SUPV,11.6
SVA,6.39
SVBI,5.23
SVU,21.77
SVVC,7.39
SWCH,12.83
SWHC,29.28
SWIR,14.15
SWK,134.51
SWKS,77.02
SWM,43.3
SWN,5.22
SWP,106
SWX,78.54
SXC,13.09
SXCL,10.5
SXCP,15.1
SXE,1.51
SXI,101.35
SXT,70.24
SYBT,39.07
SYF,32.56
SYK,173.42
SYKE,29.29
SYMC,18.6
SYMX,0.92
SYNA,83.72
SYNC,1.7
SYNL,9.6
SYNT,46.73
SYPR,0.89
SYRX,0.56
SYUT,5.06
SYX,40.49
SYY,70.49
SZMK,3.14
SZYM,2.26
T,31.9
TAC,5.3
TACO,10.95
TACOW,2.77
TACT,8.68
TAHO,4.86
TAIT,0.94
TAL,38.51
TALO,32.53
TANH,5.11
TAP,66.9
TAPA,70
TARO,114.69
TASR,19.08
TAST,13.39
TAX,18.16
TAXI,9.39
TAYD,13.71
TBBK,5.67
TBI,26.55
TBIO,0.75
TBK,16.44
TBNK,26.32
TBPH,17.93
TBRA,8.37
TCBI,40.44
TCBIL,24.78
TCBIP,23.97
TCBK,25.89
TCCO,2.8
TCF%,8.34
TCF,25.25
TCFC,21.8
TCI,38.23
TCO,59.19
TCON,6.82
TCP,26.72
TCPC,14.38
TCRD,10.87
TCS,8.1
TCX,22.38
TD,57.9
TDC,43
TDG,361.03
TDIV,26.8
TDOC,67.05
TDS,25.32
TDW%A,4.2
TDW%B,3.43
TDW,30.66
TDY,208.1
TEAM,23.24
TEAR,0.7
TECD,77.87
TECH,94.73
TECK,24.32
TEDU,11.1
TEF,8.86
TEL,91.26
TEN,43.37
TENX,2.02
TEO,18.85
TER,39.83
TERP,8.69
TESO,8.77
TESS,17.37
TEVA,23.3
TEX,43.82
TFM,28.52
TFSC,9.81
TFSCR,0.1
TFSCW,0.12
TFSL,17.36
TFX,272.65
TG,23.4
TGA,1.69
TGE,21.4
TGEN,4.48
TGH,14.95
TGI,19.85
TGLS,13.16
TGNA,11.13
TGP,16.2
TGS,13.77
TGT,77.21
TGTX,8.82
THC,34.3
THFF,33.95
THG,123.63
THLD,0.5
THO,98.42
THR,23.25
THRM,41.03
THS,52.01
THST,1.5
TI,7.04
TIA,6.25
TICC,4.72
TIER,23.75
TIF,132.71
TILE,18.35
TINY,1.91
TIPT,5.92
TISA,1.72
TISI,20.4
TITN,11.27
TIVO,7.84
TJX,95.19
TK,7.22
TKAI,5.88
TKC,5.81
TKR,43.55
TLF,7.35
TLGT,4.6
TLK,27.17
TLMR,17.68
TLOG,0.18
TLP,38.65
TLRA,4.04
TLRD,21.86
TLT,129.06
TLYS,15.12
TM,129.51
TMHC,21.38
TMK,84.46
TMO,208.8
TMST,17.15
TMUS,36.93
TMUSP,63.88
TNAV,5.9
TNC,78.3
TNDM,10.01
TNET,54.48
TNGO,7.72
TNK,1.08
TNP,3.41
TNXP,2.38
TOL,37.01
TOO,2.48
TOPS,2.2
TORM,3.61
TOT,61.92
TOUR,11.13
TOWN,18.81
TOWR,32.65
TPB,31.86
TPC,18.1
TPGE%,2.99
TPGE,11.49
TPGEU,12.5
TPGH%,1.64
TPH,16.92
TPL,789.33
TPR,47.03
TPRE,12.75
TPX,51.65
TQQQ,97.56
TR,30.15
TRC,24.08
TRCB,9.7
TRCH,0.6
TRCO,32.12
TREC,14.9
TREE,93.26
TREX,66.08
TRGP,51.68
TRI,42.38
TRIB,11.6
TRIL,8.14
TRIP,64.31
TRK,17.7
TRMB,25.07
TRMK,23.37
TRN,34.56
TRNO,37.48
TRNS,10.17
TROV,5.22
TROVW,5.04
TROW,73.54
TROX,18.46
TRP,43.43
TRQ,2.94
TRS,17.93
TRST,6.1
TRTL,9.88
TRTLW,0.34
TRTN,30.51
TRTX,20.37
TRU,74.8
TRUE,6.07
TRV,128.19
TRVN,7.23
TS,37.18
TSBK,12.77
TSC,12.99
TSCO,89.31
TSE,70.65
TSEM,12.82
TSLA,232.74
TSM,37.79
TSN,65.86
TSQ,6.65
TSRA,31.09
TSRI,3.64
TSRO,45.39
TSS,88.92
TST,1.2
TSU,17.22
TTC,60.11
TTEC,27.32
TTEK,29
TTGT,7.48
TTHI,0.97
TTI,4.68
TTM,18.5
TTMI,6.67
TTNP,3.84
TTOO,8.51
TTPH,4.03
TTS,14.32
TTWO,34.87
TU,36.65
TUBE,12.05
TUES,7.96
TUP,40.57
TUSA,24.53
TUTI,22.15
TUTT,21.56
TV,21.09
TVIX,5.45
TVIZ,13.76
TVPT,19.43
TWER,0.18
TWI,10.22
TWIN,10.84
TWLO,61.14
TWMC,3.55
TWO,15.96
TWOU,22.46
TWTR,44.26
TX,34.98
TXN,57.09
TXRH,42.47
TXT,66.68
TYL,236.14
TYPE,23.89
TZOO,8.12
UA,20.11
UAA,21.56
UACL,18.17
UAL,72.26
UAN,3.8
UBA,22.43
UBCP,9.38
UBFO,4.76
UBIC,16.93
UBIO,21.43
UBND,47.74
UBNK,12.5
UBNT,33.02
UBOH,18.96
UBP,17.75
UBS,15.22
UBSH,23.48
UBSI,37.12
UCBA,14.28
UCBI,18.41
UCFC,5.68
UCTT,5.33
UDR,37.25
UE,22.76
UEIC,62.26
UEPS,9.08
UFCS,42.5
UFI,31.53
UFPI,83.58
UFPT,21.84
UFS,48.12
UG,22
UGA,32.31
UGI,52.58
UGLD,11.84
UGP,10.89
UHAL,347.61
UHS,114.71
UHT,65.55
UIHC,18.33
UIS,14.2
UL,55.44
ULBI,5.24
ULTA,191.39
ULTI,179.52
ULTR,0.27
UMBF,53.26
UMC,2.75
UMH,15.7
UMPQ,15.98
UN,56.06
UNB,28.85
UNF,186.45
UNFI,41.65
UNG,22.41
UNH,256.98
UNIS,0.83
UNL,9.1
UNM,38.14
UNP,138.89
UNT,26.42
UNTD,12.5
UNTY,11.02
UNVR,26.84
UNXL,0.81
UPIP,8.78
UPLD,6.99
UPS,110.65
URBN,33.61
URI,151.75
URRE,3.04
USAC,16.9
USAK,17.61
USAP,9.93
USAT,4.02
USB,51.3
USBI,8.5
USCR,57.69
USDP,10.7
USEG,0.36
USFD,39.75
USG,43.15
USL,23.79
USLB,25.4
USLM,57.5
USLV,13.91
USM,34.42
USMD,11.26
USNA,108.5
USO,13.94
USPH,100.3
USX,14.71
UTEK,22.2
UTES,29.66
UTHR,122.78
UTI,3.35
UTL,51.33
UTMD,62.14
UTSI,2
UTX,128.98
UVE,36.5
UVSP,19.47
UVV,65.25
V,138.46
VA,30.21
VAC,118.59
VALE,12.99
VALU,14.61
VALX,23.04
VAR,114.59
VASC,31.4
VBIV,2.46
VBLT,3.41
VBND,50.03
VBTX,13.99
VCEL,4.61
VCIT,86.42
VCLT,88.5
VCRA,32.33
VCSH,79.61
VCYT,4.76
VDSI,14.8
VDTH,7.71
VEC,31.31
VECO,19.47
VEDL,11.96
VEEV,82.23
VER,7.53
VET,35.94
VFC,88.8
VG,13.33
VGIT,65.8
VGLT,79.53
VGR,18.78
VGSH,61.07
VHI,4.95
VIA,45.62
VIAB,41.46
VIAV,6.79
VICI,21.17
VICL,0.39
VICR,10.59
VIDI,21.27
VIGI,53.53
VIIX,26.14
VIP,4.13
VIPS,10.09
VIRC,3.08
VIRT,23.9
VISN,9.7
VIV,11.53
VIVO,21.36
VJET,3.51
VKTX,1.69
VLGEA,24.48
VLO,106.3
VLP,39.64
VLRS,6.3
VLTC,4.3
VLY%,0.06
VLY,12.71
VMBS,53.34
VMC,122.91
VMI,136.7
VMW,155.24
VNCE,19.54
VNDA,7.73
VNE,48.48
VNET,20.15
VNO,73.68
VNOM,16.8
VNQI,53.29
VNR,1.6
VNRAP,4.41
VNRBP,3.5
VNRCP,3.51
VNTR,16
VOC,5.95
VOD,31.56
VONE,94.12
VONG,101.4
VONV,87.1
VOXX,4.89
VOYA,47.93
VPG,38.95
VR,67.65
VRA,19.78
VRML,1.57
VRNG,1.82
VRNS,18.75
VRNT,36.04
VRS,20.65
VRSK,77.48
VRSN,88.56
VRTS,79.86
VRTU,35.31
VRTV,39.8
VRTX,82.52
VSAR,6.96
VSAT,75.84
VSCP,4
VSEC,68.76
VSH,25.75
VSI,6.65
VSLR,5.4
VSM,36.95
VST%A,1.35
VST,23.71
VSTM,1.43
VSTO,15.85
VTAE,7.19
VTHR,93.67
VTIP,48.91
VTL,9.15
VTNR,2.01
VTR,58.29
VTVT,5.86
VTWG,94.72
VTWO,87.83
VTWV,80.53
VUSE,25.28
VUZI,5.59
VVC,71.3
VVI,56.6
VVUS,1.19
VVV,21.73
VWOB,76.8
VWR,24.74
VXDN,7.35
VXUS,44.93
VYGR,9.59
VYMI,54.82
VZ,51.59
W,120.77
WAAS,16.46
WAB,102.75
WABC,48.99
WAFD,22.7
WAGE,51.9
WAIR,11.65
WAL,56.99
WASH,38.43
WAT,193.5
WATT,9.2
WAYN,12.96
WB,18.85
WBA,83.94
WBAI,14.04
WBB,19.15
WBC,120.51
WBK,21.97
WBMD,59.33
WBS,64.82
WBT,22.56
WCC,58.25
WCG,255.22
WCN,77.33
WD,57.37
WDC,49.02
WDFC,107.72
WDR,18.81
WEB,18.97
WEBK,19.25
WEC,65.04
WELL,62.59
WEN,10.38
WERN,27.64
WES,49.32
WETF,12.41
WEX,194.04
WEYS,25.64
WF,44.84
WFBI,20.92
WFC%,23.7
WFC,56.99
WFD,8.64
WFM,33.42
WFT,3.4
WGBS,0.61
WGO,40.9
WGP,36.12
WH,58.5
WHD,33.27
WHF,10.2
WHFBL,24.87
WHG,58.74
WHLM,6.99
WHLR,1.21
WHLRP,19.47
WHR,153.44
WIBC,10.5
WIFI,7.3
WILN,1.98
WIN,7.68
WINA,99.11
WING,23.05
WINS,10.61
WIRE,38.27
WIT,5.06
WIX,20
WK,25.05
WKHS,9.14
WLB,7.34
WLDN,8.87
WLFC,22.18
WLH,24.47
WLK,105.51
WLKP,24.5
WLL,49.18
WLRH,9.99
WLTW,121.27
WM,83.77
WMAR,9.13
WMB,27.25
WMC,10.72
WMGI,17.33
WMIH,2.35
WMK,51.92
WMLP,1.59
WMS,28.65
WMT,87.64
WNC,18.94
WNS,52.81
WOOD,46.32
WOOF,55.6
WOR,45.01
WOW,11.14
WOWO,4.54
WP,86.51
WPC,66.09
WPCS,1.25
WPG,7.67
WPM,22.06
WPP,80.69
WPPGY,114.81
WPRT,3.01
WPX,18.43
WPZ,41.02
WRB,74.42
WRD,21.85
WRE,30.3
WRES,0.18
WRI,30.32
WRK,57.04
WRLD,38.52
WSBC,29.23
WSBF,13.61
WSCI,3.91
WSFS,33.52
WSFSL,26.4
WSM,61.3
WSO,180.72
WSR,12.79
WST,98.45
WSTC,23.76
WSTG,16.97
WSTL,1.21
WTBA,18.62
WTFC,43.9
WTFCM,27.38
WTI,7.98
WTM,910.05
WTR,36.33
WTS,81.8
WTTR,15.08
WTW,90.75
WU,20.27
WUBA,65.19
WVE,14.59
WVFC,11.66
WVVI,7
WWD,53.24
WWE,79.39
WWW,33.99
WY,36.25
WYND,45.63
WYNN,94.02
X,35.93
XAN,10.13
XBIT,8.91
XBKS,7.5
XCOM,2.75
XCRA,6.08
XEC,97.92
XELB,5.88
XENE,7.15
XENT,16.65
XGTI,0.1
XHR,24.42
XIN,4.96
XIV,23.71
XL,56.43
XLNX,47.47
XLRN,25.31
XNCR,11.98
XNET,6.36
XNPT,4.37
XOM,82.49
XOMA,0.83
XON,14.56
XONE,11.5
XOXO,33.98
XPLR,3.91
XPO,99.07
XRAY,60.72
XRDC,2.53
XRF,1.84
XRM,13.35
XRX,24.97
XTLB,1.1
XXIA,11.78
XYL,67.4
Y,603.4
YCB,32.06
YDIV,16.66
YECO,4.18
YELP,40.3
YEXT,18.73
YHOO,35.17
YLCO,10.42
YNDX,15.19
YOD,1.76
YORW,29.95
YPF,15.05
YPRO,23.16
YRCW,10.21
YRD,20.5
YUM,78.66
YUMC,36.5
YY,59.8
Z,22.32
ZAGG,8.98
ZAIS,5.95
ZAYO,38.47
ZBH,112.63
ZBIO,41.36
ZBRA,67.79
ZEN,59.41
ZEUS,16.88
ZFGN,6.12
ZG,23.4
ZGNX,8.93
ZHNE,1.15
ZION,25.21
ZIONW,2.5
ZIOP,7.66
ZIV,39.15
ZIXI,3.72
ZLTQ,24.88
ZN,1.86
ZNGA,2.27
ZNH,35.83
ZOES,10.09
ZTO,22.43
ZTS,84.58
ZUMZ,19.73
ZUO,24.41
ZYME,14.73
ZYNE,10.73